simulation/qsim/comparador.msim.vcd
$comment
	File created using the following command:
		vcd file comparador.msim.vcd -direction
$end
$date
	Mon Feb 13 19:31:22 2023
$end
$version
	ModelSim Version 2020.1
$end
$timescale
	1ps
$end

$scope module ProjetoCompletoOK_vlg_vec_tst $end
$var reg 5 ! A [4:0] $end
$var reg 5 " B [4:0] $end
$var reg 1 # S0 $end
$var reg 1 $ S1 $end
$var reg 1 % S2 $end
$var wire 1 & aA $end
$var wire 1 ' aB $end
$var wire 1 ( aB2 $end
$var wire 1 ) aC $end
$var wire 1 * aC2 $end
$var wire 1 + aD $end
$var wire 1 , aE $end
$var wire 1 - aF $end
$var wire 1 . aG $end
$var wire 1 / bA $end
$var wire 1 0 bB $end
$var wire 1 1 bB2 $end
$var wire 1 2 bC $end
$var wire 1 3 bC2 $end
$var wire 1 4 bD $end
$var wire 1 5 bE $end
$var wire 1 6 bF $end
$var wire 1 7 bG $end
$var wire 1 8 dirA $end
$var wire 1 9 dirB $end
$var wire 1 : dirC $end
$var wire 1 ; dirD $end
$var wire 1 < dirE $end
$var wire 1 = dirF $end
$var wire 1 > dirG $end
$var wire 1 ? esqA $end
$var wire 1 @ esqB $end
$var wire 1 A esqC $end
$var wire 1 B esqD $end
$var wire 1 C esqE $end
$var wire 1 D esqG $end
$var wire 1 E OutOut [4] $end
$var wire 1 F OutOut [3] $end
$var wire 1 G OutOut [2] $end
$var wire 1 H OutOut [1] $end
$var wire 1 I OutOut [0] $end
$var wire 1 J Sinal $end
$var wire 1 K STATUS $end

$scope module i1 $end
$var wire 1 L gnd $end
$var wire 1 M vcc $end
$var wire 1 N unknown $end
$var tri1 1 O devclrn $end
$var tri1 1 P devpor $end
$var tri1 1 Q devoe $end
$var wire 1 R STATUS~output_o $end
$var wire 1 S Sinal~output_o $end
$var wire 1 T aA~output_o $end
$var wire 1 U aB~output_o $end
$var wire 1 V aC~output_o $end
$var wire 1 W aD~output_o $end
$var wire 1 X aE~output_o $end
$var wire 1 Y aF~output_o $end
$var wire 1 Z aG~output_o $end
$var wire 1 [ aB2~output_o $end
$var wire 1 \ aC2~output_o $end
$var wire 1 ] dirA~output_o $end
$var wire 1 ^ OutOut[4]~output_o $end
$var wire 1 _ OutOut[3]~output_o $end
$var wire 1 ` OutOut[2]~output_o $end
$var wire 1 a OutOut[1]~output_o $end
$var wire 1 b OutOut[0]~output_o $end
$var wire 1 c dirB~output_o $end
$var wire 1 d dirC~output_o $end
$var wire 1 e dirD~output_o $end
$var wire 1 f dirE~output_o $end
$var wire 1 g dirF~output_o $end
$var wire 1 h dirG~output_o $end
$var wire 1 i esqA~output_o $end
$var wire 1 j esqB~output_o $end
$var wire 1 k esqC~output_o $end
$var wire 1 l esqD~output_o $end
$var wire 1 m esqE~output_o $end
$var wire 1 n esqG~output_o $end
$var wire 1 o bA~output_o $end
$var wire 1 p bB~output_o $end
$var wire 1 q bC~output_o $end
$var wire 1 r bD~output_o $end
$var wire 1 s bE~output_o $end
$var wire 1 t bF~output_o $end
$var wire 1 u bG~output_o $end
$var wire 1 v bB2~output_o $end
$var wire 1 w bC2~output_o $end
$var wire 1 x B[0]~input_o $end
$var wire 1 y B[4]~input_o $end
$var wire 1 z B[3]~input_o $end
$var wire 1 { A[4]~input_o $end
$var wire 1 | A[3]~input_o $end
$var wire 1 } inst34|inst4|inst15~0_combout $end
$var wire 1 ~ B[1]~input_o $end
$var wire 1 !! A[1]~input_o $end
$var wire 1 "! A[2]~input_o $end
$var wire 1 #! B[2]~input_o $end
$var wire 1 $! inst34|inst4|inst15~1_combout $end
$var wire 1 %! A[0]~input_o $end
$var wire 1 &! inst11~5_combout $end
$var wire 1 '! S1~input_o $end
$var wire 1 (! S0~input_o $end
$var wire 1 )! S2~input_o $end
$var wire 1 *! inst11~3_combout $end
$var wire 1 +! inst34|inst9|inst1~combout $end
$var wire 1 ,! inst34|inst52~0_combout $end
$var wire 1 -! inst34|inst52~1_combout $end
$var wire 1 .! inst34|inst52~2_combout $end
$var wire 1 /! inst11~2_combout $end
$var wire 1 0! inst38|inst43~0_combout $end
$var wire 1 1! inst11~4_combout $end
$var wire 1 2! inst13|inst8|inst|inst6|inst1|inst2~combout $end
$var wire 1 3! inst14|inst7|inst|inst6|inst1|inst2~combout $end
$var wire 1 4! inst14|inst8|inst9[1]~0_combout $end
$var wire 1 5! inst13|inst8|inst10[1]~0_combout $end
$var wire 1 6! inst13|inst9|inst|inst4~0_combout $end
$var wire 1 7! inst14|inst7|inst12[1]~1_combout $end
$var wire 1 8! inst14|inst4|inst52~0_combout $end
$var wire 1 9! inst14|inst8|inst12[2]~0_combout $end
$var wire 1 :! inst14|inst7|inst12[2]~0_combout $end
$var wire 1 ;! inst14|inst4|inst52~1_combout $end
$var wire 1 <! inst14|inst8|inst9[3]~1_combout $end
$var wire 1 =! inst14|inst7|inst12[3]~2_combout $end
$var wire 1 >! inst14|inst4|inst10|inst1~0_combout $end
$var wire 1 ?! inst14|inst4|inst52~2_combout $end
$var wire 1 @! inst14|inst4|inst16~0_combout $end
$var wire 1 A! inst14|inst4|inst52~3_combout $end
$var wire 1 B! inst14|inst8|inst12[1]~1_combout $end
$var wire 1 C! inst14|inst4|inst4|inst15~0_combout $end
$var wire 1 D! inst14|inst4|inst4|inst15~1_combout $end
$var wire 1 E! inst14|inst4|inst4|inst15~2_combout $end
$var wire 1 F! inst69~0_combout $end
$var wire 1 G! inst10|inst12|inst|inst2~0_combout $end
$var wire 1 H! inst10|inst12|inst9|inst9~0_combout $end
$var wire 1 I! inst10|inst12|inst1|inst10~0_combout $end
$var wire 1 J! inst10|inst12|inst4|inst1~0_combout $end
$var wire 1 K! inst10|inst12|inst5|inst3~0_combout $end
$var wire 1 L! inst10|inst12|inst7|inst10~0_combout $end
$var wire 1 M! inst10|inst12|inst8|inst9~0_combout $end
$var wire 1 N! inst10|inst|inst17~0_combout $end
$var wire 1 O! inst38|inst43~1_combout $end
$var wire 1 P! inst14|inst8|inst9[2]~2_combout $end
$var wire 1 Q! inst13|inst9|inst|inst4~1_combout $end
$var wire 1 R! inst13|inst12|inst6|inst8~0_combout $end
$var wire 1 S! inst13|inst20[2]~10_combout $end
$var wire 1 T! inst14|inst4|inst13|inst1~2_combout $end
$var wire 1 U! inst14|inst34|inst|inst12|inst~2_combout $end
$var wire 1 V! inst13|inst55|inst8|inst6~0_combout $end
$var wire 1 W! inst13|inst55|inst9|inst1~combout $end
$var wire 1 X! inst14|inst4|inst52~4_combout $end
$var wire 1 Y! inst13|inst20[3]~5_combout $end
$var wire 1 Z! inst13|inst20[3]~3_combout $end
$var wire 1 [! inst13|inst9|inst8|inst6~0_combout $end
$var wire 1 \! inst13|inst20[2]~11_combout $end
$var wire 1 ]! inst13|inst20[2]~12_combout $end
$var wire 1 ^! inst2[2]~2_combout $end
$var wire 1 _! inst50[4]~2_combout $end
$var wire 1 `! inst13|inst8|inst10[2]~2_combout $end
$var wire 1 a! inst13|inst9|inst9|inst6~0_combout $end
$var wire 1 b! inst13|inst20[3]~7_combout $end
$var wire 1 c! inst13|inst55|inst9|inst6~0_combout $end
$var wire 1 d! inst13|inst20[3]~8_combout $end
$var wire 1 e! inst13|inst12|inst7|inst8~0_combout $end
$var wire 1 f! inst13|inst20[3]~6_combout $end
$var wire 1 g! inst2[3]~1_combout $end
$var wire 1 h! inst13|inst8|inst10[3]~1_combout $end
$var wire 1 i! inst50[3]~3_combout $end
$var wire 1 j! inst2[1]~0_combout $end
$var wire 1 k! inst14|inst4|inst1|inst1~4_combout $end
$var wire 1 l! inst13|inst20[1]~4_combout $end
$var wire 1 m! inst13|inst20[1]~13_combout $end
$var wire 1 n! inst13|inst20[1]~2_combout $end
$var wire 1 o! inst13|inst20[3]~9_combout $end
$var wire 1 p! inst13|inst12|inst8|inst8~0_combout $end
$var wire 1 q! inst50[4]~4_combout $end
$var wire 1 r! inst50[4]~5_combout $end
$var wire 1 s! inst50[4]~6_combout $end
$var wire 1 t! inst50[4]~7_combout $end
$var wire 1 u! inst50[4]~8_combout $end
$var wire 1 v! inst50[4]~9_combout $end
$var wire 1 w! inst1|inst17~0_combout $end
$var wire 1 x! inst50[0]~10_combout $end
$var wire 1 y! inst50[0]~11_combout $end
$var wire 1 z! inst1|inst17~1_combout $end
$var wire 1 {! inst1|inst110~0_combout $end
$var wire 1 |! inst1|inst110~1_combout $end
$var wire 1 }! inst1|inst250~0_combout $end
$var wire 1 ~! inst1|inst250~1_combout $end
$var wire 1 !" inst1|inst47~0_combout $end
$var wire 1 "" inst1|inst47~1_combout $end
$var wire 1 #" inst1|inst54~0_combout $end
$var wire 1 $" inst1|inst54~1_combout $end
$var wire 1 %" inst1|inst67~1_combout $end
$var wire 1 &" inst1|inst67~0_combout $end
$var wire 1 '" inst1|inst67~2_combout $end
$var wire 1 (" inst1|inst89~0_combout $end
$var wire 1 )" inst1|inst89~1_combout $end
$var wire 1 *" inst12|inst40~0_combout $end
$var wire 1 +" inst12|inst9~0_combout $end
$var wire 1 ," inst12|inst14~0_combout $end
$var wire 1 -" inst12|inst21~0_combout $end
$var wire 1 ." inst12|inst24~combout $end
$var wire 1 /" inst15|inst12|inst|inst2~0_combout $end
$var wire 1 0" inst15|inst12|inst9|inst9~0_combout $end
$var wire 1 1" inst15|inst12|inst1|inst10~0_combout $end
$var wire 1 2" inst15|inst12|inst4|inst1~0_combout $end
$var wire 1 3" inst15|inst12|inst5|inst3~0_combout $end
$var wire 1 4" inst15|inst12|inst7|inst10~0_combout $end
$var wire 1 5" inst15|inst12|inst8|inst9~0_combout $end
$var wire 1 6" inst15|inst|inst17~0_combout $end
$var wire 1 7" inst14|inst8|inst9 [4] $end
$var wire 1 8" inst14|inst8|inst9 [3] $end
$var wire 1 9" inst14|inst8|inst9 [2] $end
$var wire 1 :" inst14|inst8|inst9 [1] $end
$var wire 1 ;" inst14|inst8|inst9 [0] $end
$var wire 1 <" inst14|inst7|inst9 [4] $end
$var wire 1 =" inst14|inst7|inst9 [3] $end
$var wire 1 >" inst14|inst7|inst9 [2] $end
$var wire 1 ?" inst14|inst7|inst9 [1] $end
$var wire 1 @" inst14|inst7|inst9 [0] $end
$var wire 1 A" inst8 [4] $end
$var wire 1 B" inst8 [3] $end
$var wire 1 C" inst8 [2] $end
$var wire 1 D" inst8 [1] $end
$var wire 1 E" inst8 [0] $end
$var wire 1 F" inst50 [4] $end
$var wire 1 G" inst50 [3] $end
$var wire 1 H" inst50 [2] $end
$var wire 1 I" inst50 [1] $end
$var wire 1 J" inst50 [0] $end
$var wire 1 K" inst3 [4] $end
$var wire 1 L" inst3 [3] $end
$var wire 1 M" inst3 [2] $end
$var wire 1 N" inst3 [1] $end
$var wire 1 O" inst3 [0] $end
$upscope $end
$upscope $end
$enddefinitions $end
#0
$dumpvars
b1011 !
b100 "
0#
0$
0%
1&
0'
0(
0)
0*
1+
1,
1-
1.
1/
00
11
02
13
14
15
06
07
08
19
0:
0;
1<
0=
0>
1?
0@
0A
1B
1C
1D
1I
1H
1G
1F
0E
0J
0K
0L
1M
xN
1O
1P
1Q
0R
0S
1T
0U
0V
1W
1X
1Y
1Z
0[
0\
0]
0^
1_
1`
1a
1b
1c
0d
0e
1f
0g
0h
1i
0j
0k
1l
1m
1n
1o
0p
0q
1r
1s
0t
0u
1v
1w
0x
0y
0z
0{
1|
0}
0~
1!!
0"!
1#!
0$!
1%!
0&!
0'!
0(!
0)!
0*!
0+!
1,!
0-!
1.!
1/!
00!
01!
02!
13!
04!
05!
16!
17!
18!
19!
0:!
0;!
0<!
1=!
1>!
0?!
1@!
1A!
0B!
0C!
0D!
0E!
0F!
0G!
1H!
1I!
0J!
0K!
1L!
0M!
1N!
0O!
0P!
0Q!
0R!
1S!
1T!
1U!
1V!
0W!
1X!
0Y!
0Z!
0[!
0\!
1]!
0^!
1_!
1`!
1a!
0b!
0c!
0d!
0e!
1f!
0g!
0h!
0i!
0j!
1k!
0l!
0m!
1n!
0o!
0p!
0q!
0r!
0s!
0t!
0u!
0v!
0w!
0x!
1y!
1z!
1{!
1|!
1}!
1~!
1!"
0""
1#"
1$"
0%"
0&"
1'"
1("
0)"
0*"
1+"
1,"
0-"
1."
0/"
10"
11"
02"
03"
04"
15"
06"
z;"
z:"
z9"
z8"
07"
z@"
z?"
z>"
z="
0<"
zE"
1D"
zC"
zB"
zA"
zJ"
1I"
1H"
1G"
zF"
zO"
zN"
0M"
zL"
zK"
$end
#5000
b11011 !
b10011 !
b10111 !
b10100 "
b11100 "
b11000 "
0#!
1z
1y
1"!
0|
1{
13"
12"
1/"
0`!
0T!
1<!
09!
1-!
0.!
0N!
1G!
07!
1F!
1S
0T
1\
1[
0o
0r
0s
0a!
1W!
1p!
0@!
0>!
1c!
0S!
1C!
1;!
0/!
0n!
0k!
0U!
05
04
0/
1(
1*
0&
1J
1u!
0]!
1s!
0X!
0A!
1t!
0f!
1?!
0D"
0u!
1A!
1v!
0H"
0G"
0I"
0a
0_
0`
1^
0("
0#"
0!"
1w!
0'"
1E
0G
0F
0H
0|!
0c
1g
1=
09
1)"
1""
1e
1h
1>
1;
#10000
b10101 !
b11001 "
b101 !
b1101 !
b1001 !
b10001 "
1x
0z
0!!
0"!
1|
0{
05"
03"
02"
0/"
1k!
1Q!
1P!
1D!
1B!
19!
06!
14!
12!
0,!
0<!
17"
1.!
1M!
1J!
1$!
1o!
1/!
1+!
14"
0y!
0L!
0F!
0S
0Y
0b
1t
0W
0Z
1o
1r
1s
1u
1R!
1a!
1T!
1[!
0C!
0c!
0;!
0V!
08!
1<!
07"
0-!
0p!
1@!
1>!
1X!
0?!
0s!
1Z!
0.!
1("
1'"
0{!
17
15
14
1/
0.
0+
16
0I
0-
0J
0$"
0""
0e
0f
0g
1e!
1u!
0D!
1p!
0@!
0>!
0t!
1l!
0=
0<
0;
0v!
0)"
1|!
1c
0h
0^
0X!
0A!
0u!
1t!
1b!
1D"
0,"
0+"
0("
0E
0>
19
1v!
0|!
0c
1^
1j
1k
0t!
0Z!
1Y!
1u!
1d!
1,"
1+"
1("
1A
1@
1E
09
1F!
0v!
1I"
1)"
1|!
1c
1h
1a
0^
1S
0j
0k
0u!
0l!
0b!
1m!
1]!
0,"
0+"
0("
1&"
0}!
1{!
0A
0@
1J
0E
1H
1>
19
1v!
1G"
0)"
0|!
0c
0h
1_
1^
1j
1k
0d!
0~!
1-"
1+"
1*"
1("
1%"
1}!
0{!
0w!
1A
1@
1E
1F
0>
09
0v!
1H"
1)"
1h
1`
0^
0l
0i
0j
0m
1d
1~!
0z!
0-"
1,"
0*"
0&"
0%"
1#"
1!"
1:
0C
0@
0?
0B
0E
1G
1>
0G"
0)"
0h
0_
1l
1i
0k
1m
1]
0d
0,"
0+"
0#"
1{!
1w!
0:
18
1C
0A
1?
1B
0F
0>
1$"
1f
1j
1k
1z!
1A
1@
1<
0$"
1|!
1c
0f
0]
08
0<
19
#15000
b1000 !
b10101 "
b10100 "
0x
1#!
0%!
15"
0k!
0Q!
0B!
04!
02!
0$!
1K!
03!
04"
0t
0X
0u
0m!
0R!
0[!
07
0,
06
0D"
0e!
0I"
0a
1%"
1#"
0{!
0w!
0H
1""
1e
0z!
1;
1$"
0|!
0c
1f
1]
18
1<
09
#20000
b10110 "
b1010 !
b10 !
b110 !
b10010 "
1!!
1"!
0|
1~
0#!
0H!
1:!
17!
13!
0=!
1-!
13"
12"
01"
1/"
1k!
1B!
14!
12!
0<!
17"
14"
1t
0o
1q
0r
0s
1U
1e!
0a!
0T!
1C!
0k!
1R!
0p!
1m!
1<!
07"
1X!
1A!
1'
05
04
12
0/
16
1p!
0W!
1D!
0m!
1D"
1>!
0X!
0A!
1t!
1Z!
0Y!
0F!
0S
0]!
0D"
1u!
0t!
1b!
0Z!
1Y!
0J
1I"
1F!
1S
1a
0u!
1d!
0b!
0%"
0#"
1{!
1w!
1H
1J
0H"
0I"
1v!
0""
0e
1^
0a
0`
1z!
1,"
1+"
0!"
0{!
0G
0H
1E
0;
0v!
1G"
0$"
1""
1e
0f
1_
0^
0j
0k
0]
0,"
0+"
0("
0w!
08
0A
0@
0E
1F
0<
1;
0""
0e
1j
1k
0z!
1A
1@
0;
1]
18
#25000
b10 "
b111 !
b101 !
1%!
0!!
0y
1m!
0K!
0D!
07!
16!
0o!
0P!
0<!
09!
15!
04!
0/!
0+!
1}
1y!
0F!
0S
1b
1X
1D"
1n!
1k!
1[!
0R!
0C!
1T!
0p!
0>!
1c!
1;!
1s!
0Y!
1.!
1,
1I
0J
1$"
1f
0m!
0e!
1S!
1W!
0s!
1u!
1f!
0d!
1?!
1/!
1<
1I"
1v!
1^
1a
0f!
1]!
1t!
1A!
1-"
1+"
1&"
1%"
1{!
1*"
1z!
1H
1E
0v!
1)"
1""
1|!
1c
1e
1h
0^
0]
0l
0i
0j
0m
0u!
0'"
0-"
1,"
0*"
0%"
0z!
0C
0@
0?
0B
08
0E
1>
1;
19
0G"
1H"
0|!
0c
1`
0_
1]
1l
1i
0k
1m
1g
0,"
0+"
1!"
0{!
1w!
1("
0&"
1z!
1=
1C
0A
1?
1B
18
0F
1G
09
0)"
0""
1|!
1c
0e
0h
0]
1j
1k
1A
1@
08
0>
0;
19
1""
0|!
1)"
1h
0c
1e
1;
09
1>
#30000
b10101 !
b1010 "
b1000 "
b10001 !
b10011 !
0~
1z
1!!
0"!
1{
11"
0k!
0B!
05!
02!
1,!
1h!
1>!
0.!
0}
1H!
1=!
0-!
1o!
1+!
04"
1L!
1F!
1S
1Y
0t
0U
0q
0n!
0[!
1V!
18!
1-!
1p!
1u!
0t!
0?!
0/!
0>!
1Z!
0S!
02
0'
06
1-
1J
0D"
1\!
0W!
0Z!
1Y!
0A!
1?!
0]!
1v!
1^
1]!
0\!
1m!
1d!
1t!
1Z!
0Y!
1A!
1-"
1+"
1*"
0("
1&"
0!"
0}!
1{!
1E
0I"
0F!
0H"
0`
0S
0a
0l
0i
0j
0m
0]!
1D"
0u!
1\!
0m!
0d!
0-"
1,"
0&"
1}!
0*"
0C
0@
0?
0B
0H
0J
0G
1H"
1G"
1F!
1S
1_
1`
1l
1i
0k
1m
1]!
0D"
1'"
1-"
0,"
1*"
0{!
1C
0A
1?
1B
1G
1F
1J
0H"
1I"
0v!
0G"
0."
0)"
0""
0e
0h
0n
0_
0^
1a
0`
0l
0i
1k
0m
0g
0-"
0+"
0*"
1&"
0}!
0'"
0=
0C
1A
0?
0B
0G
1H
0E
0F
0D
0>
0;
1H"
0I"
1."
1n
0a
1`
1g
1l
1i
1j
1m
1("
0&"
1%"
1#"
1!"
1}!
0w!
1{!
1C
1@
1?
1B
1=
1G
0H
1D
1)"
1""
1e
1h
1'"
1>
1;
0)"
0""
1|!
1c
0e
0h
0g
0=
0>
0;
19
#35000
b11011 !
b11010 !
b0 "
b10 "
1~
0z
0%!
1|
01"
1k!
1B!
15!
12!
0,!
1$!
0h!
1@!
1>!
0M!
1K!
17!
06!
1N!
0=!
14"
0y!
0L!
0Y
0b
1t
0\
0[
0X
1Z
1q
1l!
0V!
1R!
08!
0-!
0p!
1X!
1u!
1b!
0?!
0k!
0@!
0>!
0{!
0z!
12
1.
0,
0(
0*
16
0I
0-
1""
1e
1]
1D"
1W!
1e!
1d!
0A!
0l!
0X!
0u!
0b!
1?!
18
1;
1v!
0|!
0c
1^
0D"
0d!
1A!
1-"
1+"
1*"
0("
0%"
0#"
0!"
1z!
1w!
1E
09
1I"
1G"
0F!
0v!
0^
0S
1_
1a
0]
0l
0i
0j
0m
0-"
1,"
1#"
1!"
0w!
0*"
1("
0C
0@
0?
0B
08
1H
1F
0J
0E
0I"
0G"
1F!
1)"
0$"
0""
0e
0f
1h
1S
0_
0a
1l
1i
0k
1m
0z!
0,"
0+"
1%"
1C
0A
1?
1B
0H
0F
1J
1>
0<
0;
1$"
1""
0)"
0h
1e
1f
1j
1k
1]
18
1A
1@
1<
1;
0>
#40000
b110 "
b1010 !
b1000 !
b1110 "
b1100 "
0!!
0{
0~
1#!
1z
0N!
1M!
0:!
07!
03!
0$!
0o!
1f!
1=!
0+!
1}
16"
1k!
1U!
0B!
19!
05!
02!
1`!
0T!
1h!
1>!
0F!
0S
0w
0v
0Z
1\
1[
0c!
1a!
1T!
0;!
0k!
0U!
0R!
0t!
1p!
0>!
0Z!
1l!
0\!
1u!
0f!
1b!
0?!
1(
1*
0.
01
03
0J
1G"
1_
0u!
1d!
0b!
0l!
0e!
1S!
1s!
1f!
1D"
0]!
0A!
1,"
1+"
0'"
0#"
0!"
0}!
1w!
1F
0G"
0_
1g
0j
0k
0d!
0D"
0f!
1]!
0~!
1z!
0,"
0+"
1'"
1#"
1!"
1}!
0w!
0A
0@
1=
0F
1v!
1G"
1I"
0H"
0$"
0""
0e
0f
0`
1a
1_
1^
0g
1j
1k
0]
1d
1~!
0z!
1-"
1+"
1*"
1&"
0#"
0!"
0'"
1:
08
1A
1@
0=
1E
1F
1H
0G
0<
0;
0G"
0I"
1H"
1$"
1""
1|!
1c
1e
1f
1`
0a
0_
1g
0l
0i
0j
0m
1]
0d
1'"
1w!
0&"
0%"
0("
1z!
0:
18
0C
0@
0?
0B
1=
0F
0H
1G
1<
1;
19
0$"
0""
0|!
0c
0e
0f
0]
0g
0=
08
0<
0;
09
1)"
1h
1>
#45000
b1100 !
b1101 !
b11101 !
1%!
1"!
1{
0K!
17!
16!
13!
1,!
1N!
0=!
1$!
1o!
1+!
0}
1y!
1L!
1Y
1b
0\
0[
1X
1k!
1V!
1U!
18!
1-!
0p!
1>!
0s!
1Y!
0S!
0'"
1{!
1,
0(
0*
1I
1-
1$"
1""
1e
1f
1g
0W!
1d!
1=
1<
1;
0v!
0^
0]!
0-"
0+"
0*"
1("
1%"
1#"
1!"
0w!
0E
1G"
1|!
1c
1_
1l
1i
1j
1m
1,"
1+"
0#"
0!"
0}!
0{!
1w!
1C
1@
1?
1B
1F
19
0H"
0)"
0""
0e
0h
0`
0j
0k
0,"
0+"
0("
0%"
1}!
0w!
0A
0@
0G
0>
0;
0|!
0c
1j
1k
1'"
0z!
1A
1@
09
1]
0g
0=
18
#50000
b1101 "
b11101 "
b10101 !
b11001 "
b10111 !
1!!
0|
1x
0#!
1y
0N!
0M!
0J!
07!
0$!
1=!
03"
11"
1m!
0k!
0U!
1Q!
1P!
1B!
06!
14!
12!
06"
0`!
0T!
1<!
0o!
0h!
1f!
0>!
0+!
04"
0y!
1F!
1S
0b
0t
1w
1v
0q
1s
1W
1Z
1\
1[
1k!
1[!
0V!
1R!
08!
1p!
1D"
0m!
1W!
1T!
0<!
0f!
0d!
0Y!
1S!
1(
1*
1.
1+
15
02
11
13
06
0I
1J
0$"
0f
1e!
0S!
1s!
0D"
1]!
0p!
1@!
1>!
0<
1I"
0G"
0_
1a
1p!
0]!
0s!
1X!
1A!
1t!
1&"
0}!
1{!
1w!
1H
0F
1v!
0I"
1H"
1`
0a
1^
1s!
0t!
1u!
0'"
0~!
1z!
1-"
1+"
1*"
0&"
1}!
0{!
1E
0H
1G
0H"
0v!
1)"
1h
0^
0`
0l
0i
0j
0m
0]
1d
1g
0u!
1'"
1~!
0-"
0+"
0*"
1=
1:
08
0C
0@
0?
0B
0G
0E
1>
1v!
1^
1l
1i
1j
1m
0d
0g
1,"
1+"
1("
0=
0:
1C
1@
1?
1B
1E
1|!
1c
0j
0k
0A
0@
19
0)"
0h
0>
#55000
b11011 "
b10110 !
b11010 "
b11110 "
b10100 !
0%!
0!!
0x
1~
1#!
0Q!
1M!
0G!
1:!
03!
0,!
02"
0/"
0P!
09!
16"
0L!
0Y
0w
0v
1o
1r
1T
0Z
1n!
0R!
1c!
0a!
1;!
0-!
0.
1&
14
1/
01
03
0-
1D"
0e!
1S!
0p!
1f!
1]!
1I"
1a
0s!
1&"
1%"
1{!
1H
1G"
1H"
1`
1_
1*"
0{!
0w!
0("
0%"
1F
1G
0v!
0|!
0."
0n
0c
0^
0l
0i
0z!
0*"
1("
0&"
1#"
1!"
0?
0B
0E
09
0D
1)"
1."
1n
1h
1l
1i
1]
18
1?
1B
1>
1D
0)"
1$"
1""
1e
1f
0h
0>
1<
1;
#60000
b10000 !
b0 !
b1110 "
b1100 "
b1101 "
1x
0~
0y
0"!
0{
12"
1/"
0k!
0B!
19!
04!
1h!
1`!
0T!
0@!
0>!
0M!
1K!
1J!
1G!
0=!
0:!
14"
1y!
0F!
0S
1b
1t
0T
0W
0X
1Z
0o
0r
0n!
0c!
0;!
1a!
0W!
0X!
0A!
1u!
1t!
0f!
1?!
1>!
1T!
1{!
1z!
04
0/
1.
0,
0+
0&
16
1I
0J
0""
0e
0]
0D"
0?!
1A!
1f!
1W!
08
0;
0G"
1|!
1c
0_
0t!
0A!
0,"
0+"
0'"
0#"
0{!
1w!
0F
19
0I"
1G"
1)"
1""
1e
1h
1_
0a
1g
1j
1k
0u!
1,"
1+"
1%"
0!"
0}!
1'"
1A
1@
1=
0H
1F
1>
1;
0|!
0)"
0""
0e
0h
0c
0g
0j
0k
0'"
0A
0@
0=
09
0>
0;
1g
1=
#65000
b1000 !
b1001 !
b1001 "
b1101 !
b1011 "
1~
0#!
1%!
1"!
1|
05"
02"
0/"
1k!
1B!
09!
15!
0`!
0T!
1-!
0[!
1Q!
1M!
0K!
1:!
13!
1N!
1=!
1}
0y!
1L!
1Y
0b
0\
0[
1X
0Z
1o
1r
1u
1[!
1c!
1;!
1R!
0a!
0W!
1.!
1T!
1t!
1p!
0>!
0~!
17
14
1/
0.
1,
0(
0*
0I
1-
0$"
0f
1d
1?!
1e!
0S!
1/!
1W!
1s!
0t!
0f!
1:
0<
1t!
1A!
1f!
0]!
1u!
1v!
0G"
0_
1^
0u!
1-"
0,"
1*"
0("
0%"
1}!
1'"
1E
0F
1G"
0H"
0`
1_
0g
0l
0i
1k
0m
1~!
1#"
1!"
1{!
1("
0C
1A
0?
0B
0=
1F
0G
1|!
1c
0d
0:
19
1$"
1""
0|!
0c
1e
1f
1<
1;
09
#70000
b1100 !
b1111 "
1#!
0%!
15"
12"
00"
1/"
1`!
0T!
19!
0-!
0Q!
1K!
0I!
03!
04"
1y!
1b
0t
1V
0X
0o
1p
0r
0u
1a!
0W!
0c!
1S!
0;!
0.!
1n!
0R!
0("
0{!
07
04
10
0/
0,
1)
06
1I
0""
0e
1u!
1]!
0?!
0/!
1D"
0S!
0;
1|!
1c
0t!
0A!
0]!
19
1H"
1I"
1a
1`
0u!
0-"
1,"
1&"
0#"
0!"
0w!
1{!
1G
1H
0H"
0."
0|!
1)"
1h
0c
0n
0`
0k
1m
0'"
1-"
0,"
1%"
1C
0A
0G
0D
09
1>
1""
1."
1n
1e
1k
0m
1g
1=
0C
1A
1;
1D
#75000
b11111 "
b100 !
b0 !
0"!
0|
1y
0N!
0M!
1I!
0=!
0:!
0}
1o!
0k!
0h!
0f!
0`!
1T!
0B!
1@!
1>!
09!
05!
1/!
1+!
0L!
1F!
1S
0Y
0V
1Z
1\
1[
0p!
0@!
0>!
0e!
0T!
1C!
1W!
0n!
1X!
1A!
0s!
1Y!
1(
1*
1.
0)
0-
1J
0G"
0_
0X!
0A!
1t!
0W!
1]!
0D"
1Z!
0Y!
0-"
1,"
0*"
1'"
1w!
0F
0F!
0v!
0)"
0""
0e
0h
0^
0S
0g
1l
1i
0k
1m
0t!
0Z!
1Y!
1u!
0]!
1l!
1b!
1\!
0,"
0+"
0%"
0}!
0{!
1C
0A
1?
1B
0=
0J
0E
0>
0;
1F!
1H"
0I"
0a
1`
1S
1j
1k
0u!
0l!
0b!
0\!
1d!
1]!
1D"
0'"
1("
0&"
1%"
1#"
1!"
1}!
0w!
1{!
1A
1@
1J
1G
0H
1v!
0H"
1)"
1""
1e
1h
0`
1^
1g
0D"
0d!
0]!
1'"
1,"
1+"
0("
0%"
0#"
0!"
1w!
1=
1E
0G
1>
1;
0v!
1G"
1H"
1I"
0)"
0""
0e
0h
1a
1`
1_
0^
0j
0k
0g
1("
1#"
1!"
0w!
0=
0A
0@
0E
1F
1G
1H
0>
0;
0I"
0G"
0H"
1)"
1""
1|!
1c
1e
1h
0`
0_
0a
0z!
0,"
0+"
0#"
0!"
1w!
0'"
0("
0H
0F
0G
1>
1;
19
0)"
0""
0|!
0c
0e
0h
1g
1j
1k
1]
1z!
18
1A
1@
1=
0>
0;
09
1""
1)"
1h
1e
0]
08
1;
1>
#80000
b10111 "
b10 !
b10010 !
b10011 "
b11010 !
1!!
1|
1{
0#!
0z
1N!
1:!
17!
13!
1$!
1=!
0o!
0/!
0+!
06"
10"
1P!
1<!
19!
14"
1t
0p
1w
1v
0\
0[
1e!
0C!
1n!
1k!
0[!
1U!
18!
0=!
1p!
0Y!
1.!
0(
0*
11
13
00
16
1f!
1D"
0a!
1c!
1W!
1;!
1>!
1s!
1/!
0f!
1G"
1I"
1v!
1^
1a
1_
1-"
1+"
1*"
1'"
0w!
1&"
1%"
1F
1H
1E
0G"
0_
0g
0l
0i
0j
0m
0-"
1,"
0*"
1w!
0C
0@
0?
0B
0=
0F
0)"
0""
0e
0h
1l
1i
0k
1m
1C
0A
1?
1B
0>
0;
