simulation/qsim/comparador.msim.vcd
$comment
	File created using the following command:
		vcd file comparador.msim.vcd -direction
$end
$date
	Fri Feb 03 11:46:14 2023
$end
$version
	ModelSim Version 2020.1
$end
$timescale
	1ps
$end

$scope module ProjetoCompletoOK_vlg_vec_tst $end
$var reg 5 ! A [4:0] $end
$var reg 5 " B [4:0] $end
$var reg 1 # S0 $end
$var reg 1 $ S1 $end
$var reg 1 % S2 $end
$var wire 1 & SAIDA [4] $end
$var wire 1 ' SAIDA [3] $end
$var wire 1 ( SAIDA [2] $end
$var wire 1 ) SAIDA [1] $end
$var wire 1 * SAIDA [0] $end
$var wire 1 + STATUS $end

$scope module i1 $end
$var wire 1 , gnd $end
$var wire 1 - vcc $end
$var wire 1 . unknown $end
$var tri1 1 / devclrn $end
$var tri1 1 0 devpor $end
$var tri1 1 1 devoe $end
$var wire 1 2 STATUS~output_o $end
$var wire 1 3 SAIDA[4]~output_o $end
$var wire 1 4 SAIDA[3]~output_o $end
$var wire 1 5 SAIDA[2]~output_o $end
$var wire 1 6 SAIDA[1]~output_o $end
$var wire 1 7 SAIDA[0]~output_o $end
$var wire 1 8 B[0]~input_o $end
$var wire 1 9 A[0]~input_o $end
$var wire 1 : A[2]~input_o $end
$var wire 1 ; B[2]~input_o $end
$var wire 1 < inst34|inst13|inst1~0_combout $end
$var wire 1 = A[3]~input_o $end
$var wire 1 > B[3]~input_o $end
$var wire 1 ? B[4]~input_o $end
$var wire 1 @ A[4]~input_o $end
$var wire 1 A inst34|inst~0_combout $end
$var wire 1 B A[1]~input_o $end
$var wire 1 C B[1]~input_o $end
$var wire 1 D inst34|inst53~0_combout $end
$var wire 1 E inst35|inst5|inst15~0_combout $end
$var wire 1 F S1~input_o $end
$var wire 1 G S2~input_o $end
$var wire 1 H S0~input_o $end
$var wire 1 I inst5~combout $end
$var wire 1 J inst34|inst17~0_combout $end
$var wire 1 K inst7~4_combout $end
$var wire 1 L inst7~3_combout $end
$var wire 1 M inst7~2_combout $end
$var wire 1 N inst7~8_combout $end
$var wire 1 O inst7~5_combout $end
$var wire 1 P inst34|inst53~1_combout $end
$var wire 1 Q inst7~6_combout $end
$var wire 1 R inst7~7_combout $end
$var wire 1 S inst38|inst43~0_combout $end
$var wire 1 T inst11~0_combout $end
$var wire 1 U inst|inst|inst7|inst1|inst2~combout $end
$var wire 1 V inst50[4]~1_combout $end
$var wire 1 W inst38|inst43~2_combout $end
$var wire 1 X inst50[4]~2_combout $end
$var wire 1 Y inst30|inst6|inst8~0_combout $end
$var wire 1 Z inst30|inst7|inst8~0_combout $end
$var wire 1 [ inst30|inst7|inst8~1_combout $end
$var wire 1 \ inst30|inst8|inst8~0_combout $end
$var wire 1 ] inst38|inst43~1_combout $end
$var wire 1 ^ inst4[4]~0_combout $end
$var wire 1 _ inst50[4]~0_combout $end
$var wire 1 ` inst50[4]~3_combout $end
$var wire 1 a inst3[3]~0_combout $end
$var wire 1 b inst30|inst8|inst1|inst~combout $end
$var wire 1 c inst50[3]~4_combout $end
$var wire 1 d inst50[3]~5_combout $end
$var wire 1 e inst50[3]~6_combout $end
$var wire 1 f inst|inst|inst7|inst1|inst~combout $end
$var wire 1 g inst3[3]~1_combout $end
$var wire 1 h inst50[2]~7_combout $end
$var wire 1 i inst50[2]~8_combout $end
$var wire 1 j inst50[2]~9_combout $end
$var wire 1 k inst30|inst6|inst1|inst~combout $end
$var wire 1 l inst3[1]~2_combout $end
$var wire 1 m inst50[1]~10_combout $end
$var wire 1 n inst50[1]~11_combout $end
$var wire 1 o inst50[1]~12_combout $end
$var wire 1 p inst50[0]~13_combout $end
$var wire 1 q inst50 [4] $end
$var wire 1 r inst50 [3] $end
$var wire 1 s inst50 [2] $end
$var wire 1 t inst50 [1] $end
$var wire 1 u inst50 [0] $end
$var wire 1 v inst2 [4] $end
$var wire 1 w inst2 [3] $end
$var wire 1 x inst2 [2] $end
$var wire 1 y inst2 [1] $end
$var wire 1 z inst2 [0] $end
$upscope $end
$upscope $end
$enddefinitions $end
#0
$dumpvars
b101 !
b11011 "
1#
0$
1%
0*
0)
0(
0'
0&
0+
0,
1-
x.
1/
10
11
02
03
04
05
06
07
18
19
1:
0;
1<
0=
1>
1?
0@
0A
0B
1C
0D
0E
0F
1G
1H
0I
0J
0K
1L
0M
0N
0O
0P
1Q
0R
0S
0T
1U
0V
0W
0X
1Y
1Z
0[
1\
0]
0^
0_
0`
0a
0b
0c
0d
0e
1f
0g
0h
0i
0j
0k
0l
0m
0n
0o
0p
0u
zt
zs
zr
zq
zz
zy
0x
zw
zv
$end
#5000
b1 !
b1011 "
b11 "
0>
0?
0:
1b
0\
1M
1A
0Z
0<
1R
1O
0b
1T
12
1+
#10000
b10001 !
b10 "
b10101 !
b10010 "
b11010 "
08
1>
1?
1:
1@
1k
0Y
1P
1b
0A
1Z
0Q
1K
1<
0Z
0R
1Q
0K
0b
1\
0O
1b
0\
1R
1O
0T
02
0+
1T
12
1+
#15000
b10111 !
b11110 "
b11111 "
b1111 "
b111 "
18
1;
0>
0?
1B
0f
1Y
0P
1[
0<
0b
1Z
1b
#20000
b11111 !
b11110 !
b101 "
b100 "
b10100 "
08
0C
1?
09
1=
1f
0Y
1J
0M
0b
1\
0Z
0R
0O
0T
02
0+
#25000
b1110 !
b1100 !
b10000 "
b1101 !
0;
19
0B
0@
0f
0[
0U
1<
0k
1P
0J
1b
0\
#30000
b1001 !
b11000 "
b11001 "
b1001 "
b1011 !
18
1>
0?
1B
0:
1f
1Y
1U
0P
0b
1\
1M
1A
1J
0<
1R
1O
0Q
1K
0R
0O
1T
12
1+
0T
02
0+
#35000
b11 !
b10011 !
b1101 "
b10010 !
b10110 !
b101 "
1;
0>
09
1:
0=
1@
0f
1[
0\
0A
1k
0Y
1Z
1b
1Q
0K
0Z
1R
1O
1T
12
1+
#40000
b100 "
b10100 "
b110 !
b10000 "
b111 !
b11 !
19
0:
0@
08
0;
1?
1P
0[
0M
0U
0R
0b
0O
0T
02
0+
#45000
b10010 "
b1 !
b11010 "
b10001 !
b11110 "
b10000 !
b10100 !
09
0B
1:
1@
1C
1;
1>
0P
0J
1[
1M
1U
1b
1R
0b
1\
1O
1T
12
1+
#50000
b11100 !
b1110 "
b1010 "
0;
0?
1=
1f
0[
1<
1b
0b
#55000
b11110 !
b10 "
b11010 !
0>
1B
0:
1b
0\
0k
1Y
0<
#60000
b11 "
b1010 !
b1011 !
b1011 "
b1111 !
19
1:
0@
18
1>
1k
1Z
1<
1A
0b
1\
1b
0Q
1K
0R
0O
0T
02
0+
#65000
b111 !
b11011 "
b11111 "
b10111 !
b10110 !
1;
1?
09
0=
1@
0f
1[
1Q
0K
0<
0A
0k
0b
1R
1O
1T
12
1+
#70000
b11101 "
b10100 !
b11100 "
b10100 "
b10000 "
b100 !
0B
0@
08
0C
0;
0>
0Y
0M
0U
0[
1<
1b
0\
0Z
0R
0O
0b
0T
02
0+
#75000
b0 !
b0 "
b1 !
b10 "
b11 "
b1011 "
b1111 "
18
1C
1;
1>
0?
19
0:
1Y
1U
1b
1M
1[
1R
1O
0b
1\
1T
12
1+
#80000
b0 !
b1101 "
b101 "
b1 "
0C
0;
0>
09
1f
0Y
0[
0<
1b
0\
1A
0b
1D
#85000
b1000 !
b1100 !
b0 "
b10 "
b110 "
08
1C
1;
1:
1=
1k
0f
1N
1E
0D
1[
1b
0M
0A
0O
0R
0N
0E
0b
1\
0T
02
0+
#90000
b1110 !
b10110 "
b110 !
b10111 "
b10101 "
b10001 "
18
0C
0;
1?
1B
0=
1f
1J
0[
1<
1b
0\
0b
#95000
b10110 !
b10010 !
b1 "
b11010 !
b11 "
1C
0?
0:
1=
1@
0k
1Y
0J
1M
0<
1b
1R
1O
1T
12
1+
#100000
b11011 !
b1011 "
b1011 !
b1111 !
b11011 "
b111 !
b11001 "
0C
1>
1?
19
1:
0=
0@
1J
0M
1Z
1<
0R
0O
0b
1\
0T
02
0+
#105000
b11000 "
b110 !
b1110 !
09
1=
08
1k
0Y
1b
0f
0U
0Z
0b
#110000
b11100 "
b10100 "
b100 "
1;
0>
0?
1f
1[
1U
0<
1b
0\
0b
1\
#115000
b1010 !
b1011 !
b1100 "
b11100 "
1>
1?
19
0:
1b
1P
0[
1<
0b
#120000
b1001 !
b11001 !
b11000 "
b11101 !
b10000 "
b0 "
0;
0>
0?
0B
1:
1@
0f
0U
1b
0\
1M
0k
0J
1R
1O
1T
12
1+
#125000
b10 "
b10101 !
b101 !
b1 !
b1010 "
0:
0=
0@
1C
1>
0<
1k
1f
1U
#130000
b11 !
b1110 "
b1011 !
b11011 !
b110 "
1;
0>
1B
1=
1@
0f
1<
0k
1Y
1[
0b
1\
#135000
b111 "
b11111 !
b1111 !
1:
0@
18
1Z
0<
0M
1k
0P
0R
0O
0T
02
0+
#140000
b1110 !
b101 "
b1101 "
b1010 !
0C
1>
09
0:
0Y
1J
1b
1M
1A
0Z
1<
0[
1R
1O
0b
1T
12
1+
#145000
b1000 !
b1001 "
b1000 "
b11000 !
b0 "
08
0;
0>
0B
1@
0k
0U
0Q
1K
0<
1b
0\
0A
0J
0R
0O
1Q
0K
1R
1O
0T
02
0+
1T
12
1+
#150000
b10000 "
b10000 !
b10001 !
b10100 "
19
0=
1;
1?
1P
0b
1A
1f
1U
1<
#155000
b10110 "
b10101 !
b11110 "
b1110 "
b11101 !
b11100 !
09
1:
1=
1C
1>
0?
1k
0P
1[
0<
1\
0A
0f
1b
#160000
b1100 !
b1010 "
b10 "
b1101 !
0;
0>
19
0@
1f
0[
1<
0b
0M
1P
1b
0\
0R
0O
0T
02
0+
#165000
b1111 !
b11 "
b1 "
b111 !
b10111 !
b101 "
b10110 !
18
0C
1;
09
1B
0=
1@
0f
0P
1J
1[
0<
0b
1M
1R
1b
1O
1T
12
1+
#170000
b10101 "
b11101 "
b10100 !
b11100 !
b1100 !
0B
1=
0@
1>
1?
0k
0J
1\
0M
0R
0O
0T
02
0+
#175000
b11100 "
b11000 "
b1101 !
b10000 "
b101 !
19
0=
08
0;
0>
1P
0\
0U
0[
1<
0b
#180000
b1 !
b10010 "
b10 "
b11 !
b1010 "
b1011 !
1C
1>
0?
1B
0:
1=
1f
1Y
1U
1\
1M
1A
0<
1R
1O
1D
0R
1N
1T
12
0O
1+
0T
02
0+
#185000
b11011 !
b1011 "
b1111 "
b11010 !
b11110 !
b10110 !
18
1;
09
1:
0=
1@
0f
0P
0N
1[
1Z
1b
0\
0A
1R
1O
0b
1\
0D
1T
12
1+
#190000
b11111 "
b110 !
0@
1?
0M
0R
0O
0T
02
0+
#195000
b11101 "
b100 !
b11001 "
b101 !
b1 !
b1001 !
b1001 "
19
0B
0:
1=
0C
0;
0?
1k
0Y
0[
0Z
1b
1M
1A
1f
0b
1R
1O
1D
1N
1E
1T
12
0O
1+
0T
02
0+
#200000
b1011 !
b1101 "
b1111 !
b111 !
b11101 "
1;
1?
1B
1:
0=
0f
1[
0M
0A
0k
1Y
1J
0D
1b
0\
0b
1\
0R
1Z
0N
0E
#205000
b10101 "
b10100 "
b101 !
b10000 "
b1101 !
b0 "
0B
1=
08
0;
0>
0?
0Y
0J
0U
1P
0[
1<
0Z
1b
0\
#210000
b11101 !
b11100 !
b1000 "
b1001 "
b11110 !
b1101 "
b10110 !
b11101 "
18
1;
1>
1?
09
1B
0=
1@
1k
1U
0P
1[
0<
1M
1J
1R
0b
1\
1O
1T
12
1+
#215000
b10010 !
b11100 "
b10000 !
b1100 "
08
0?
0B
0:
0k
1f
0J
0[
1<
1b
0\
#220000
b0 !
b1 !
b100 "
b0 "
b1001 !
b1101 !
0;
0>
19
1:
1=
0@
0f
0U
0M
1P
0R
0O
0T
02
0+
#225000
b10 "
b1111 !
b10010 "
b11111 !
b11011 !
1B
0:
1@
1C
1?
1Y
0<
1f
1U
#230000
b10000 "
b1011 !
0@
0C
1k
0f
0Y
0U
1J
#235000
b1010 !
b11000 "
b1000 !
b1000 "
b1100 !
b1010 "
b11100 !
1C
1>
0?
09
0B
1:
1@
1f
1U
0J
0b
1\
1M
0P
1<
1R
1O
1T
12
1+
#240000
b1011 "
b10100 !
b10101 !
b11 "
b10011 "
19
0=
18
0>
1?
0k
1Y
0\
1A
1Z
0Q
1K
1b
0R
0O
0T
02
0+
#245000
b10001 !
b10000 !
b11011 "
b1011 "
1>
0?
09
0:
0b
1\
0A
1k
0Y
0Z
1Q
0K
0<
1b
0\
1R
1O
1T
12
1+
#250000
b1111 "
b10010 !
b1110 "
b11010 !
b11110 !
b110 "
1B
1:
1=
08
1;
0>
0k
1Y
1[
0f
1Z
0b
1\
#255000
b100 "
b11111 !
b10100 "
b10101 "
b10111 !
b10011 !
b11101 "
19
0:
0=
18
0C
1>
1?
0Z
1<
1J
#260000
b11 !
b1 !
b11111 "
b0 !
b11110 "
b1000 !
b1100 !
b10110 "
08
1C
0>
09
0B
1:
1=
0@
1k
0Y
0J
0M
1Z
0<
0Z
0R
0O
0T
02
0+
#265000
b110 "
b1110 !
b1111 !
b111 "
b1011 !
19
1B
0:
18
0?
1Y
0[
1<
1[
1b
0\
0b
1\
#270000
b11 "
b1 "
b1001 "
b1111 !
1:
0C
0;
1>
0[
1Z
0k
1f
1J
1b
1M
1A
0Q
1K
1R
1O
0R
0O
1T
12
1+
0T
02
0+
#275000
b11111 !
b10111 !
b10101 !
b1000 "
b1100 "
b100 "
b10001 !
08
1;
0>
0B
0:
0=
1@
0Y
1P
1[
1Q
0K
0\
0A
0J
0Z
0[
1R
1O
0b
1T
12
1+
#280000
b10100 "
b10110 "
b1 !
b11 !
b111 !
1B
1:
0@
1C
1?
1Y
1[
0<
0M
0f
1Z
1b
0R
0O
0T
02
0+
#285000
b1111 !
b10111 "
b11111 "
b1111 "
b11111 !
b11011 !
18
1>
0?
0:
1=
1@
1k
0P
1\
1M
0Z
1<
1R
1O
1T
12
1+
#290000
b11001 !
b10001 !
b1110 "
b10101 !
08
0B
1:
0=
0Y
1P
1Z
0<
0b
0Z
#295000
b10100 !
b1010 "
b1000 "
b0 "
b10000 "
b100 !
b10001 "
18
0C
0;
0>
1?
09
0@
0k
1f
0P
0[
1<
1b
0\
0M
0R
0b
0O
0T
02
0+
#300000
b1100 !
b1000 !
b1001 !
b11001 "
b1001 "
b11001 !
b1000 "
08
1>
0?
19
0:
1=
1@
0f
0U
1P
1\
1M
0<
1R
1O
1T
12
1+
#305000
b11011 !
b1100 "
b1110 "
b10011 !
b10111 !
b110 "
b111 !
1C
1;
0>
1B
1:
0=
0@
1Y
1U
1[
0\
1A
1Z
1b
1D
0R
1N
0O
0T
02
0+
#310000
b111 "
b101 !
b1101 !
b1001 !
0B
0:
1=
18
0D
0Z
1<
0b
1\
0M
0A
0P
1E
0N
0E
#315000
b1000 !
b1111 "
b1100 !
1>
09
1:
1b
1M
1A
1k
0Y
1Z
0<
1R
1O
0Z
1T
12
1+
#320000
b1011 "
b1001 "
b11100 !
b1000 "
b10100 !
b0 "
0=
1@
08
0C
0;
0>
0\
0A
0k
0U
1D
0[
0Q
1K
1<
1Q
0K
0D
0R
1N
1E
0b
0O
1R
0N
0E
0T
02
1O
0+
1T
12
1+
#325000
b10000 "
b10110 !
b10111 !
b10100 "
b10101 "
b11101 "
19
1B
18
1;
1>
1?
1Y
1J
1U
1[
0<
1b
1Z
0b
1\
#330000
b10011 !
b11 !
b1011 !
b1101 "
b1001 "
0;
0?
0:
1=
0@
1f
0[
1A
0Z
1b
0b
0Q
1K
0R
0O
0T
02
0+
#335000
b1011 "
b1001 !
b1000 !
b11011 "
09
0B
1C
1?
1k
0Y
0J
0M
0A
1Q
0K
#340000
b11010 "
b11000 !
b11001 !
19
1@
08
1P
1M
1A
1R
1O
1T
12
1+
#345000
b11101 !
b10101 !
b11000 "
b10100 !
0C
09
1:
0=
0k
0f
0U
1D
0P
0Q
1K
1<
1b
0\
0A
0R
1N
1E
0O
0D
1Q
0K
1R
0N
0E
0T
02
1O
0+
1T
12
1+
#350000
b10000 "
b10100 "
b10110 "
b10101 !
19
1C
1;
0>
1k
1P
1U
1[
0<
0b
1A
1b
#355000
b10111 "
b101 !
b1 !
b10101 "
b0 !
09
0:
0@
18
0C
0k
0P
0[
1<
0M
0A
1D
0R
0b
0D
0O
0T
02
0+
#360000
b101 "
b100 "
b10000 !
b10100 !
b10101 !
19
1:
1@
08
0?
1P
1[
0<
1M
1f
1R
1b
1O
1T
12
1+
#365000
b11101 !
b1100 "
b1101 "
b11001 !
18
1>
0:
1=
1k
0f
0P
1\
0[
1<
0b
#370000
b1001 "
b1011 "
b11011 "
b11000 !
b10011 "
b10010 "
b11100 !
09
1:
08
1C
0;
0>
1?
1f
1b
0\
0M
0R
0O
0T
02
0+
#375000
b10100 !
b10000 "
b0 "
b1000 "
b1001 "
18
0C
1>
0?
0=
0k
1M
1R
1O
1T
12
1+
#380000
b100 !
b1101 "
b101 !
b1101 !
b1111 "
b111 "
b110 "
08
1C
1;
0>
19
1=
0@
1k
0f
1P
1[
0<
0M
0R
0b
1\
0O
0T
02
0+
#385000
b1111 !
b10110 "
b10010 "
b1110 !
b10000 "
0C
0;
1?
09
1B
0U
1J
0[
1<
0P
1b
0\
#390000
b11110 !
b10110 !
b0 "
b100 "
b10111 !
b110 "
1C
1;
0?
19
0=
1@
0k
1Y
1U
0J
1[
0<
1M
1P
0b
1Z
1b
1R
1O
1T
12
1+
#395000
b10011 !
b111 "
b11 !
b1011 !
b10111 "
b10011 "
b10001 "
18
0C
0;
1?
0:
1=
0@
1f
0P
1J
0[
0M
0Z
0b
1\
0R
1b
0\
0O
0T
02
0+
#400000
b11001 "
b1010 !
b11011 "
09
1C
1>
0J
0b
1\
#405000
b1110 !
b11010 "
b11110 !
b10110 !
b1010 "
08
0?
1:
0=
1@
1M
1Z
1<
1b
0\
1R
1O
0b
1\
1T
12
1+
#410000
b10100 !
b10 "
b10101 !
b0 "
b10001 !
b11001 !
0C
0>
19
0B
0:
1=
0f
0Y
0U
1P
0Z
0<
1b
0\
#415000
b1001 !
b1011 !
b1000 "
b1111 !
1>
1B
1:
0@
0b
1\
1A
1k
1J
1<
0Q
1K
0R
0O
0T
02
0+
#420000
b1100 "
b1101 "
b1111 "
b11111 !
1@
18
1C
1;
0A
1Y
1U
0P
0J
1[
0<
1Q
0K
1Z
1b
1R
1O
1T
12
1+
#425000
b11111 "
b11110 !
b11100 !
b11000 !
b11101 "
09
0B
0:
0C
1?
0k
0Y
0Z
1<
1A
0[
0b
#430000
b10000 !
b11001 "
b1001 "
b10001 !
b10011 !
b10111 !
0;
0?
19
1B
1:
0=
1f
0Q
1K
0A
1Y
1J
1b
0\
0R
0O
1Q
0K
1Z
1R
1O
0b
1\
0T
02
0+
1T
12
1+
#435000
b1000 "
b111 !
b1010 "
b1111 !
b11010 "
b1101 !
0B
1=
0@
08
1C
1?
1k
0Y
0J
1b
0M
1P
0Z
0R
0O
0b
0T
02
0+
#440000
b10010 "
b1100 !
b1000 !
b11000 !
b10000 "
b11010 !
09
1B
0:
1@
0C
0>
0P
1J
0<
0f
0U
1b
0\
#445000
b0 "
b1000 "
b11011 !
b11111 !
b1010 "
b11101 !
19
0B
1:
1C
1>
0?
1P
0J
1<
1f
1U
0b
1\
1M
1R
1O
1T
12
1+
#450000
b10 "
b11001 !
0:
0>
0<
1b
0\
#455000
b110 "
b10001 !
b10110 "
b10100 "
0=
0C
1;
1?
0b
1A
0k
1<
#460000
b10101 "
b1 !
b11 !
b11101 "
b111 !
b11001 "
b1001 "
1B
1:
0@
18
0;
1>
0?
1Y
1J
0Q
1K
0A
0P
1b
1Z
1Q
0K
0R
0O
0b
1\
1R
1O
0T
02
0+
1T
12
1+
#465000
b1111 !
b1011 "
b11111 !
b11101 !
b11 "
b111 "
b10111 "
1C
1;
0>
1?
0B
1=
1@
0f
0J
1[
0<
0M
0R
0O
0T
02
0+
#470000
b11100 !
b11000 !
b1000 !
b1010 !
b10011 "
b11 "
0;
0?
09
1B
0:
0@
1f
0[
0Z
1b
0\
#475000
b10 !
b1 "
b1001 "
b11 !
b10011 !
b10001 !
b1101 "
b11101 "
0C
1;
1>
1?
19
0B
0=
1@
1k
0f
0Y
1[
1<
1M
0[
0b
1\
1R
1O
1b
0\
1T
12
1+
#480000
b10101 !
b11101 !
b11111 "
b10111 "
b11100 !
b10011 "
1C
0;
0>
09
1:
1=
1f
0M
0R
0O
0T
02
0+
#485000
b10001 "
b10101 "
0C
1;
0k
0f
1[
0<
0b
1\
#490000
b1100 !
b1000 !
b10001 "
0;
0:
0@
1f
0[
1b
0\
#495000
b1010 !
b11001 "
b11011 "
1C
1>
1B
1Y
0b
1\
#500000
b11010 "
b1110 !
b11110 "
b1100 !
b10110 "
0B
1:
08
1;
0>
1k
0Y
1[
1Z
0f
1b
0\
0Z
0b
1\
#505000
b1101 !
b11101 !
b10100 "
b10101 "
18
0C
19
1@
#510000
b11001 !
b11011 !
b11101 "
b1011 !
b11100 "
08
1>
1B
0:
0@
1f
1P
1b
1J
0[
1<
0b
#515000
b11000 "
b1010 !
b1000 !
b10000 "
b11000 !
09
0B
1@
0;
0>
0k
0P
0J
0f
0U
0<
1b
0\
#520000
b0 "
b11001 !
b1001 !
19
0@
0?
1P
#525000
b1 !
b10 "
b110 "
b10110 "
1C
1;
1?
0=
1k
1U
1<
0b
#530000
b11 !
b11110 "
b10 !
b10010 !
b11010 "
b1010 "
0;
1>
0?
09
1B
1@
1f
0<
1b
1M
0k
1Y
0P
1R
1O
1T
12
1+
#535000
b10110 !
b1011 "
b10100 !
b11 "
b10101 !
b101 !
b111 "
b10111 "
18
1;
0>
1?
19
0B
1:
0@
0f
1[
0b
0M
1Z
1b
0R
0O
0T
02
0+
#540000
b1101 !
b10101 "
b1111 !
b11101 "
b1110 !
0C
1>
09
1B
1=
1k
0Y
1J
1\
0Z
#545000
b11100 "
b11000 "
b1100 !
b10000 "
0B
08
0;
0>
0k
0J
0U
0[
1<
0b
1b
0\
#550000
b11100 !
b10100 !
b10010 "
b10101 !
b10011 "
b10111 "
b10111 !
18
1C
1;
19
1B
0=
1@
1k
1Y
1U
1[
0<
0b
1M
1A
1Z
1b
1D
1R
1O
1N
1E
1T
12
0O
1+
0T
02
0+
#555000
b10011 !
b11011 !
0:
1=
0Z
1<
0b
1\
0M
0A
0D
0R
0N
0E
#560000
b111 "
b1111 "
b1011 !
b1101 "
b1111 !
b111 !
1:
0=
0@
0C
1>
0?
1Z
0<
1M
0k
1J
1R
1O
1T
12
1+
#565000
b1100 "
b101 !
b11100 "
b1 !
b1001 !
0B
0:
1=
08
1?
0Y
0J
0Z
1<
1b
0M
1f
1P
0[
0R
0O
0b
0T
02
0+
#570000
b1000 !
b11000 "
b10000 "
b11000 !
b10010 "
b10011 "
b11010 !
b11 "
18
1C
0;
0>
0?
09
1B
1@
1Y
0P
0<
1b
0\
1M
1R
1O
1T
12
1+
#575000
b11110 !
b11111 !
b111 "
b110 "
b11101 !
b10110 "
08
1;
1?
19
0B
1:
1k
0f
0Y
1P
1[
0M
1Z
0Z
0R
0b
1\
0O
0T
02
0+
#580000
b10101 !
b101 !
b100 !
b110 !
b110 "
0?
09
1B
0=
0@
1M
1A
0k
1Y
0P
1b
0\
1R
1O
1D
1Z
1N
1E
1T
12
0O
1+
0T
02
0+
#585000
b1110 "
b1100 "
b1101 "
b1110 !
b11110 !
1=
1@
18
0C
1>
1\
0A
1k
0Y
0N
0E
1J
0D
0Z
1O
1T
12
1+
#590000
b11010 !
b1001 "
b11011 !
b11001 !
b1011 "
b1001 !
1C
0;
19
0B
0:
0@
0k
1f
1Y
0J
0[
1A
0b
#595000
b11011 "
b10011 "
b10010 "
b1101 !
b1111 !
1B
1:
08
0>
1?
1D
1Z
0Q
1K
1<
1P
1b
0\
0M
0A
0R
1N
0b
1\
0O
0D
1Q
0K
0N
0T
02
0+
#600000
b1110 !
b11110 !
b10 "
b11100 !
0?
09
0B
1@
1M
1k
0Y
0P
1R
1O
0Z
1b
0\
1T
12
1+
#605000
b0 "
b1000 "
b11101 !
b1101 !
b1111 !
19
1B
0@
0C
1>
1P
1J
1A
0f
0U
0b
1\
0Q
1K
0R
0O
0T
02
0+
#610000
b1001 "
b1011 !
b1011 "
b11 "
b1010 !
b1000 !
09
0B
0:
18
1C
0>
0P
0J
0<
1f
1U
1b
0\
0M
0A
1Q
0K
#615000
b0 !
b10011 "
b10000 !
b10010 "
b10100 !
b10000 "
b11000 "
b10101 !
08
0C
1>
1?
19
1:
0=
1@
0k
0f
0U
1P
1M
1<
1R
1O
1T
12
1+
#620000
b11100 "
b10111 !
b10100 "
b10110 !
09
1B
1;
0>
1k
0P
1J
1f
1[
1U
0<
0b
1A
0Q
1K
1b
0R
0O
0T
02
0+
#625000
b11110 !
b1110 !
b10101 "
b11101 "
18
1>
1=
0@
0f
1\
0M
0A
1Q
0K
#630000
b1101 "
b1111 "
b11110 !
b111 "
1@
1C
0>
0?
1M
0k
1Y
0J
0b
1R
1O
1Z
1T
12
1+
#635000
b11100 !
b110 "
b100 "
b1100 "
08
0C
1>
0B
1f
0Y
1b
0Z
#640000
b11000 !
b1000 "
b10000 !
b0 !
b10 !
b1001 "
b1 "
18
0;
0>
1B
0:
0=
0@
1k
0[
0\
1A
1J
0b
0Q
1K
0R
0O
0T
02
0+
#645000
b10001 "
b10011 "
b110 !
b10111 "
b1110 !
b10110 "
b11110 "
1:
1=
08
1C
1;
1>
1?
1[
1\
0M
0A
0k
0f
1Y
0J
1D
1b
1Q
0K
0D
1Z
1N
1E
0N
0E
#650000
b11110 !
b11010 "
0;
1@
1f
0[
1<
1M
1A
1R
1O
0Q
1K
0R
0O
1T
12
1+
0T
02
0+
#655000
b11000 "
b11010 !
b10010 !
b11001 "
b10001 "
b10 !
0:
0=
0@
18
0C
0>
0Z
1Q
0K
0<
0\
0M
0A
1k
0Y
1J
0b
#660000
b110 !
b1110 !
b10000 "
b11000 "
08
1>
1:
1=
0f
0U
1\
1<
#665000
b1111 !
b1101 !
b1001 !
b1 !
19
0B
0:
0=
0k
1P
0J
0<
1b
0\
#670000
b11100 "
b10001 !
b10100 "
b10000 !
b10100 !
09
1:
1@
1;
0>
0P
1[
1M
1A
1f
1U
0b
1R
1b
1O
1D
1N
1E
1T
12
0O
1+
0T
02
0+
#675000
b10110 !
b110 !
b11100 "
b111 !
1>
19
1B
0@
0b
1\
0M
0A
1k
1P
0E
1J
0D
0R
0N
#680000
b1100 "
b1110 "
b1111 !
b110 "
b1110 !
09
1=
1C
0>
0?
0k
1Y
0P
0f
0J
1Z
#685000
b1010 !
b1000 !
b10110 "
b10100 "
0C
1?
0B
0:
1f
0Y
0Z
1<
0[
1b
0\
#695000
b10101 "
b10001 "
b11000 !
b10000 !
b10100 !
1:
0=
1@
18
0;
0b
1M
1A
1R
1O
0Q
1K
0R
0O
1T
12
1+
0T
02
0+
#700000
b11001 "
b11011 "
b11100 !
1=
1C
1>
1\
1k
#705000
b11101 !
b11111 !
b1011 "
b1111 "
b11011 !
b111 "
b101 "
0C
1;
0>
0?
19
1B
0:
0k
0f
1Y
1J
1Q
0K
1b
0\
0A
1[
1R
1O
0b
1\
1T
12
1+
#710000
b100 "
b1011 !
b11 !
b10 !
b0 !
b100 !
09
0B
1:
0=
0@
08
0Y
0J
1Z
0<
1b
0\
1A
1f
0Z
1D
1N
1E
0O
0T
02
0+
#715000
b1100 "
b1101 "
b101 !
b111 !
19
1B
18
1>
1Y
1J
0D
0f
0b
1\
0A
1Z
0N
0E
1O
1T
12
1+
#720000
b10111 !
b101 "
b10110 !
0>
09
1@
1b
0\
1k
0Y
0Z
#725000
b111 "
b11110 !
b110 "
b1110 !
b1111 !
19
1=
0@
08
1C
0k
1Y
1P
0b
1\
0M
0J
1Z
0R
0O
0T
02
0+
#730000
b1011 !
b100 "
b11 !
b10011 !
0C
0:
0=
1@
1k
1f
0Y
1J
0Z
1<
1b
0\
1M
0[
1R
1O
0b
1T
12
1+
#735000
b0 "
b1000 "
b1001 "
b1011 "
b11011 !
1=
18
1C
0;
1>
1\
1Y
0P
0J
0<
#740000
b11011 "
b11010 !
b11110 !
b11111 "
b10111 "
b10110 "
b10110 !
09
1:
0=
08
1;
0>
1?
0k
1[
1Z
0\
1A
0f
1b
1D
1N
1E
0O
0T
02
0+
#745000
b110 !
b110 "
b111 !
b10 "
b1010 "
b1011 "
b1111 !
18
0;
1>
0?
19
1=
0@
1k
1f
0[
0Q
1K
1<
1\
0R
0D
0N
0E
#750000
b1101 !
b1001 "
b11101 !
b1101 "
0C
1;
0B
1@
0f
0Y
1[
1Q
0K
0<
0A
0Z
1R
1O
1T
12
1+
#755000
b101 "
b10101 !
0=
0>
0\
#760000
b10100 !
b100 "
b10110 !
b110 !
b1100 "
08
1>
09
1B
0@
1f
0b
1\
1J
#765000
b11100 "
b1110 !
b11101 "
b10101 "
1=
18
0>
1?
0M
0f
0R
0O
0T
02
0+
#770000
b1010 !
b10001 "
b1000 !
b11000 !
b1 "
b10000 !
b1001 "
0;
1>
0?
0B
0:
0=
1@
1f
0[
1M
0k
0J
1b
0\
1R
1O
1T
12
1+
#775000
b10001 !
b1000 "
b1100 "
b11100 "
08
1;
1?
19
1P
1<
#780000
b10011 !
b11101 "
b11001 "
18
0;
1B
1Y
0P
0<
1J
#785000
b10001 "
b10101 "
1;
0>
0f
1[
1<
0b
1A
1b
#790000
b10111 !
b111 !
b1111 !
b1110 !
b101 "
b1101 "
b1001 "
0;
1>
0?
09
1:
1=
0@
1f
0[
0Q
1K
1\
1k
0Y
1Z
0R
0O
0Z
0b
0T
02
0+
