simulation/qsim/comparador.msim.vcd
$comment
	File created using the following command:
		vcd file comparador.msim.vcd -direction
$end
$date
	Mon Feb 13 11:13:58 2023
$end
$version
	ModelSim Version 2020.1
$end
$timescale
	1ps
$end

$scope module SomadorSubtratorOK2_vlg_vec_tst $end
$var reg 5 ! A [4:0] $end
$var reg 5 " B [4:0] $end
$var wire 1 # F [4] $end
$var wire 1 $ F [3] $end
$var wire 1 % F [2] $end
$var wire 1 & F [1] $end
$var wire 1 ' F [0] $end
$var wire 1 ( Sinal $end

$scope module i1 $end
$var wire 1 ) gnd $end
$var wire 1 * vcc $end
$var wire 1 + unknown $end
$var tri1 1 , devclrn $end
$var tri1 1 - devpor $end
$var tri1 1 . devoe $end
$var wire 1 / Sinal~output_o $end
$var wire 1 0 F[4]~output_o $end
$var wire 1 1 F[3]~output_o $end
$var wire 1 2 F[2]~output_o $end
$var wire 1 3 F[1]~output_o $end
$var wire 1 4 F[0]~output_o $end
$var wire 1 5 B[2]~input_o $end
$var wire 1 6 B[0]~input_o $end
$var wire 1 7 B[4]~input_o $end
$var wire 1 8 B[1]~input_o $end
$var wire 1 9 inst8|inst9[2]~0_combout $end
$var wire 1 : A[4]~input_o $end
$var wire 1 ; A[2]~input_o $end
$var wire 1 < A[1]~input_o $end
$var wire 1 = A[0]~input_o $end
$var wire 1 > inst7|inst12[2]~1_combout $end
$var wire 1 ? inst4|inst13|inst1~2_combout $end
$var wire 1 @ inst9|inst|inst4~0_combout $end
$var wire 1 A inst8|inst9[1]~1_combout $end
$var wire 1 B inst7|inst12[1]~2_combout $end
$var wire 1 C inst4|inst52~0_combout $end
$var wire 1 D inst55|inst9|inst4~2_combout $end
$var wire 1 E inst7|inst|inst7|inst1|inst2~combout $end
$var wire 1 F A[3]~input_o $end
$var wire 1 G B[3]~input_o $end
$var wire 1 H inst8|inst|inst7|inst1|inst2~combout $end
$var wire 1 I inst7|inst12[3]~0_combout $end
$var wire 1 J inst4|inst10|inst1~0_combout $end
$var wire 1 K inst4|inst4|inst15~0_combout $end
$var wire 1 L inst4|inst52~1_combout $end
$var wire 1 M inst4|inst16~0_combout $end
$var wire 1 N inst4|inst52~2_combout $end
$var wire 1 O inst4|inst1|inst1~4_combout $end
$var wire 1 P inst4|inst4|inst9|inst6~0_combout $end
$var wire 1 Q inst4|inst4|inst15~combout $end
$var wire 1 R inst65~0_combout $end
$var wire 1 S inst9|inst|inst4~2_combout $end
$var wire 1 T inst12|inst6|inst8~0_combout $end
$var wire 1 U inst12|inst7|inst8~0_combout $end
$var wire 1 V inst12|inst8|inst8~0_combout $end
$var wire 1 W inst12|inst8|inst8~1_combout $end
$var wire 1 X inst9|inst|inst4~1_combout $end
$var wire 1 Y inst9|inst8|inst6~0_combout $end
$var wire 1 Z inst9|inst9|inst6~0_combout $end
$var wire 1 [ inst55|inst9|inst6~0_combout $end
$var wire 1 \ inst20[4]~5_combout $end
$var wire 1 ] inst20[3]~4_combout $end
$var wire 1 ^ inst20[4]~6_combout $end
$var wire 1 _ inst20[4]~16_combout $end
$var wire 1 ` inst20[3]~7_combout $end
$var wire 1 a inst20[3]~17_combout $end
$var wire 1 b inst20[3]~8_combout $end
$var wire 1 c inst|inst1~combout $end
$var wire 1 d inst20[3]~9_combout $end
$var wire 1 e inst20[2]~10_combout $end
$var wire 1 f inst20[2]~11_combout $end
$var wire 1 g inst20[2]~12_combout $end
$var wire 1 h inst20[1]~13_combout $end
$var wire 1 i inst20[1]~14_combout $end
$var wire 1 j inst20[1]~15_combout $end
$var wire 1 k inst7|inst9 [4] $end
$var wire 1 l inst7|inst9 [3] $end
$var wire 1 m inst7|inst9 [2] $end
$var wire 1 n inst7|inst9 [1] $end
$var wire 1 o inst7|inst9 [0] $end
$var wire 1 p inst8|inst9 [4] $end
$var wire 1 q inst8|inst9 [3] $end
$var wire 1 r inst8|inst9 [2] $end
$var wire 1 s inst8|inst9 [1] $end
$var wire 1 t inst8|inst9 [0] $end
$var wire 1 u inst8|inst10 [4] $end
$var wire 1 v inst8|inst10 [3] $end
$var wire 1 w inst8|inst10 [2] $end
$var wire 1 x inst8|inst10 [1] $end
$var wire 1 y inst8|inst10 [0] $end
$upscope $end
$upscope $end
$enddefinitions $end
#0
$dumpvars
b1011 !
b10100 "
1'
0&
0%
0$
0#
1(
0)
1*
x+
1,
1-
1.
1/
00
01
02
03
14
15
06
17
08
19
0:
0;
1<
1=
0>
1?
1@
0A
1B
1C
0D
1E
1F
0G
1H
1I
0J
1K
0L
0M
0N
1O
1P
0Q
1R
0S
0T
0U
1V
1W
0X
0Y
1Z
0[
0\
1]
0^
0_
0`
1a
0b
1c
0d
0e
0f
0g
0h
0i
0j
zo
zn
zm
zl
0k
zt
zs
zr
zq
0p
zy
0x
0w
zv
zu
$end
#5000
b11 !
b10000 "
b10010 "
18
05
0F
0O
1A
0I
1i
1T
0W
1J
1U
1b
0K
1j
13
1W
1&
1d
11
1$
#10000
b10011 !
b10111 !
b10101 !
b10100 !
b11100 !
b10000 "
08
0=
0<
1;
1F
1:
1O
0H
0A
09
0B
0@
1>
0c
0a
0]
0P
1_
10
04
0i
0V
0J
1p
0T
0C
1[
0Z
1D
0O
0b
0'
1#
0W
1\
1N
0U
0j
1g
12
03
0\
0&
1%
0_
0d
01
00
0#
0$
#15000
b0 "
b11110 !
b11111 !
1=
1<
07
1@
0>
1c
1]
0p
1P
14
1C
0[
0D
0?
1e
0N
1K
1'
0g
02
1f
1[
1L
0e
1a
0%
0R
0/
1b
1\
1N
1i
0(
1g
12
1^
0a
0\
1%
1d
1R
1j
13
1/
11
0i
0f
0b
0^
1$
1(
1&
1_
10
1#
0j
0g
0d
0_
00
01
02
03
0&
0%
0$
0#
#20000
b10111 !
0F
1I
1M
1J
1`
1^
1\
0K
1b
0^
0L
1_
10
1#
1d
0_
00
11
1$
0#
#25000
b100 "
b10011 !
b10001 !
b11001 !
0<
0;
1F
15
1B
1>
0I
1w
1H
1?
1O
1U
0?
1^
0M
0J
1e
1h
1f
0e
0N
0`
0\
1K
1_
10
1i
0f
0h
1a
1\
0b
0^
1L
1#
1g
0R
0/
12
0i
1f
1b
1^
1N
1%
0(
1j
0g
0d
0_
00
01
02
13
1h
0a
0\
1&
0%
0$
0#
0j
1g
1d
1_
1R
1/
10
11
12
03
1i
0f
0b
0^
0&
1%
1$
1#
1(
1j
0g
0d
0_
00
01
02
13
1&
0%
0$
0#
#30000
b101 "
b11000 !
b1 "
0=
16
05
1X
0E
0B
0@
0>
0w
1D
1?
0h
1Y
1I
0O
0C
0U
0D
0?
1e
0i
1Z
1M
1J
1h
1f
0[
0L
1\
1^
0K
1i
0j
1g
12
03
0^
0&
1%
1_
1j
13
10
1#
1&
0_
00
0#
#35000
b1001 "
b10000 !
b1000 "
0F
06
1G
0I
1k
0X
0H
1V
0M
0J
0P
04
1^
1J
0N
0h
0Y
1`
0'
1b
0`
0\
0e
1a
0i
0Z
1_
0R
0/
10
0^
0f
1#
0(
1d
0j
03
11
1$
0&
0_
0g
02
00
0#
0%
#40000
b0 !
b11000 "
b10 !
b11 !
b11100 "
b1011 !
15
17
1=
1<
1F
0:
1H
19
1E
1B
1@
1I
0k
1R
1P
14
1/
0V
1M
1Z
1?
1O
1C
1i
1^
1W
1(
1'
0W
1N
0i
1j
1_
10
13
1h
1e
0a
1\
1&
1#
0R
0j
03
0/
1i
1f
0b
0^
0(
0&
1j
1g
0d
0_
00
01
12
13
1&
1%
0$
0#
#45000
b1111 !
b11101 "
b1110 !
b11001 "
16
05
0=
1;
1X
0O
1A
0@
1>
1Y
1T
0C
1[
0Z
1U
0?
1Z
0[
1`
1W
0`
1b
0b
1d
11
1$
0d
01
0$
#50000
b11011 "
b1100 !
b100 !
b11010 "
0<
0F
06
18
0B
0I
0X
0P
04
0T
1O
1^
0W
0M
0J
0h
0'
0i
1h
0N
1`
1K
1_
10
1i
0h
0e
1a
0`
0\
1b
1#
0j
1R
1/
03
0f
0b
0^
0&
1(
1j
1d
11
13
1&
1$
0g
0d
0_
00
01
02
0%
0$
0#
#55000
b1010 "
b1100 !
1F
07
1I
0c
0a
0]
1V
1J
1x
0A
09
0R
0/
1W
0J
0i
0K
1[
0Z
0U
1D
1?
0(
1\
1K
1_
1g
12
10
1L
1#
1%
1N
0\
#60000
b1000 !
b1001 !
b1110 "
b1100 "
b1101 "
b1 !
16
08
15
1=
0;
0F
1S
0O
0x
1w
0D
0?
0>
0I
1Q
0Y
0[
1Z
0L
1?
0W
1J
0g
02
1\
0N
0Q
0K
0%
1g
0_
1d
11
00
12
0\
1%
0#
1$
#65000
b101 "
b10001 !
b10011 !
b10111 !
b1 "
b0 "
b11111 !
1<
1;
1F
1:
06
05
0G
1c
1a
1]
0S
0H
1@
0w
0?
0V
0J
1P
14
1i
1C
0Z
1K
1'
0j
0g
0d
01
02
03
1f
1[
1L
0&
0%
0$
1j
13
1b
1\
1N
1&
1g
12
1^
0a
0\
1%
1d
1R
1/
11
0i
0f
0b
0^
1$
1(
1_
10
1#
0j
0g
0d
0_
00
01
02
03
0&
0%
0$
0#
#70000
b10000 "
b10010 "
b11010 "
b11011 !
b11110 "
b10011 !
0;
0F
18
15
1G
17
1>
1I
1O
1H
1A
1V
1J
0c
0]
1D
1?
1W
1M
0V
1Y
0C
1\
0K
1j
1d
11
13
0L
0W
1&
1$
1g
1_
10
12
1%
1#
0_
00
0#
#75000
b10001 !
b1110 "
b110 "
b11001 !
0G
07
0<
1F
1c
1]
1w
0D
1x
0A
0?
1B
0I
1h
1e
1`
1^
0[
1Z
1U
0Y
1T
1C
0O
0M
0J
0j
0g
0d
01
02
03
1i
1f
1b
0e
0Z
1[
0h
0N
1K
0&
0%
0$
1_
10
0f
0`
0i
1a
1L
1#
1j
1g
1d
0R
0/
11
12
13
1i
1f
1N
1&
1%
1$
0(
0g
0j
03
02
0a
0\
0%
0&
1j
1g
1R
1/
12
13
0i
0f
0b
0^
1&
1%
1(
0j
0g
0d
0_
00
01
02
03
0&
0%
0$
0#
#80000
b1001 !
b1101 !
b1111 !
b111 !
1<
1;
0F
0:
0c
0]
0R
0/
0(
1g
1d
11
12
1%
1$
#85000
b110 !
b100 "
b10100 "
b11100 "
b10110 !
b10010 !
b10000 !
b11000 !
08
1G
17
0=
0<
0;
1F
1:
1O
0x
19
0w
1D
1?
0E
0B
0@
0>
1R
0P
04
1/
0T
0C
0[
1Z
0D
1I
0O
1(
0'
1j
0g
02
13
0U
0L
1\
1W
1M
1J
1&
0%
1g
0j
03
12
0W
0K
1%
0&
1_
10
1#
0_
00
0#
#90000
b11101 "
b1101 "
b11100 !
b11110 !
b10110 !
1<
1;
0F
16
07
1E
1B
0I
1k
1X
09
1c
1]
1V
1w
0M
0J
1P
14
1I
0k
1O
1C
1^
1J
0N
1h
1e
1`
1'
0g
0d
01
02
0^
1W
0J
1i
0h
1f
1b
0`
0\
0e
1a
0%
0$
1_
0R
0/
10
0b
1K
0f
1#
0(
0_
1d
1j
1g
12
13
11
00
0#
1$
1&
1%
0d
0g
02
01
0$
0%
#95000
b10111 !
b1111 "
b111 !
b1110 "
b11110 "
b101 !
06
18
17
1=
0<
0:
0X
0O
1A
1@
0V
0w
1M
1J
0?
0B
1>
0I
1R
1/
1Y
0C
0W
1[
0Z
1N
1b
0K
1f
1L
1O
1D
1?
0M
0J
1(
0L
1h
0a
0i
1K
0R
1d
1g
12
11
0/
0N
1i
0f
0b
1L
0(
1$
1%
0j
03
0h
1a
1\
1N
0&
1R
1j
0g
0d
01
02
13
1/
0i
1f
1b
1^
1h
0a
0\
1(
1&
0%
0$
0R
0/
1i
0f
0b
0^
0(
0j
1g
1d
1_
10
11
12
03
0&
1%
1$
1#
1j
0g
0d
0_
00
01
02
13
1&
0%
0$
0#
#100000
b1101 !
b11100 "
b11101 !
b11111 !
08
1<
1F
1:
0O
0A
19
0>
0c
0]
1R
1/
0h
0Y
1C
0[
1Z
0D
1(
1g
12
0i
0L
1\
1%
0N
0j
03
0\
0&
#105000
b11011 !
b11010 !
b1100 "
b10010 !
b1110 "
18
07
0=
0;
0F
1O
1x
09
1c
1a
1]
1V
1w
1J
1B
0@
1>
1I
0R
0P
04
0/
1i
1T
0C
1[
0Z
1U
0?
1b
1^
1W
0K
0O
0J
0(
0'
0g
02
0[
1\
0i
0^
1K
0%
1j
1d
1_
10
11
13
0b
0\
1^
1Q
1&
1$
1#
0j
0_
00
03
0^
0a
0]
0&
0#
0d
1_
10
01
0$
1#
0_
00
0#
#110000
b110 "
b111 "
b10 !
b110 !
b1110 !
1;
1F
0:
16
0G
0c
1X
0V
1M
1J
1_
1P
14
10
1Y
1N
0K
0Q
1#
1'
1g
12
1Z
1\
1%
#115000
b11 "
b10011 "
b10010 "
b110 !
0F
06
05
17
0I
0X
1A
19
0w
1D
1?
1c
1]
1V
0M
0J
0x
0P
0_
00
04
1^
1J
0Y
0D
0?
1`
0N
1K
0'
0#
0g
02
1b
0`
0\
0K
0Z
1Q
1a
0%
1_
1R
1/
10
0^
0Q
0a
0]
1#
1(
1d
0R
0/
11
1a
1]
0b
1$
0(
0_
1R
1/
00
1b
0#
1(
0d
01
0$
1d
11
1$
#120000
b100 !
b10110 "
b110 "
b1100 !
15
07
0<
1F
1w
09
0c
0a
0]
0V
0J
1x
0A
0B
1I
1_
0R
0/
10
0b
1K
1Y
0T
1O
1M
1J
1#
0(
1g
12
1Z
1N
0K
1%
0d
0g
1j
13
02
01
1\
0$
0%
1&
#125000
b1101 !
b100 "
b1100 "
b1001 !
b1101 "
b1 !
16
08
1G
1=
0;
0F
1S
0O
0x
1V
0M
0J
0>
0I
0Y
0N
1K
0U
1?
1J
1d
11
0\
0W
0K
1$
1g
12
1%
0_
00
0#
#130000
b10001 !
b10011 !
b10010 !
b1111 "
b111 "
b10110 !
18
0G
0=
1<
1;
1:
1O
1x
0V
0J
1X
0S
1B
1c
1a
1]
1I
1P
14
1i
1Y
1T
1K
0O
1f
1M
1J
1'
0j
0d
0g
02
01
03
1U
0i
1N
1b
1^
0K
0&
0$
0%
1j
1g
12
13
1W
1h
0a
1\
1&
1%
1d
0j
1R
1_
10
1/
03
11
1i
0f
0b
0^
1$
0&
1(
1#
1j
0g
0d
0_
00
01
02
13
1&
0%
0$
0#
#135000
b10111 "
b10110 "
b11110 !
b1110 !
b1010 !
0;
1F
0:
06
17
0X
1A
1V
0w
0M
0J
0x
0?
0R
0P
04
0/
0h
0Y
0U
0N
1`
1^
1K
1e
0(
0'
0i
0e
0Z
1a
0`
0\
1b
1Q
1f
1R
1_
10
1/
0f
0b
0^
0a
0]
1(
1#
0j
1d
0R
1g
12
0/
11
03
0&
1$
0(
1%
0g
0d
0_
00
01
02
0%
0$
0#
#140000
b11110 "
b1110 "
b10 !
b10010 !
b10110 !
1;
0F
1:
1G
07
1w
1x
0A
1?
1Z
1U
0Q
1a
1]
1f
1g
12
1%
#145000
b10111 !
b11110 "
b111 !
17
1=
0:
0V
0w
1M
1J
0x
1A
0?
1@
1>
0I
1R
1P
14
1/
0W
1[
0Z
1N
1b
0K
1C
0f
1i
1D
1?
0M
0J
1(
1'
1e
0a
0N
1K
0R
1d
0g
1j
13
02
11
0/
1f
0i
0b
0e
1a
1\
1L
0(
1$
0%
1&
1R
1/
0f
1i
1b
1^
1N
1(
1g
0j
0d
01
03
12
1e
0a
0\
1%
0&
0$
0g
1j
1d
1_
0R
0/
10
11
13
02
1f
0i
0b
0^
0%
1&
1$
1#
0(
1g
0j
0d
0_
00
01
03
12
1%
0&
0$
0#
#150000
b11010 "
b11000 "
b110 !
b1000 "
b10110 !
0=
1:
08
05
07
0@
0>
1I
1O
0H
0A
1V
1J
0P
1R
1/
04
0U
0D
0?
1^
1W
0J
1h
0T
1`
1\
0K
0'
1(
0L
0e
1b
0`
0\
1K
1i
1_
10
0N
0f
0b
0^
1L
1#
1d
1j
13
11
0h
1a
1\
1N
1$
1&
0R
0g
0d
0_
00
01
02
0/
1f
1b
1^
1h
0a
0\
0(
0%
0$
0#
1R
1/
0f
0b
0^
1(
1g
1d
1_
10
11
12
1%
1$
1#
0g
0d
0_
00
01
02
0%
0$
0#
#155000
b10100 !
b1001 "
b11100 !
b1101 "
b1111 "
b11101 !
b11111 "
16
18
15
17
1=
0<
1F
1S
1H
0c
0]
0I
1_
10
1T
0V
0h
0W
1#
0i
1g
0_
00
12
1%
0#
0j
03
0&
#160000
b10111 "
b11111 !
b10110 "
b10010 "
1<
06
05
0G
0B
0S
0O
1A
1@
19
1V
1J
1P
14
1Y
0T
1O
0C
0[
1Z
1U
1?
1\
0K
1'
1d
11
0U
0L
1W
1$
1j
0d
01
13
0W
0N
1&
0$
1d
1_
10
11
0\
1$
1#
0_
00
0#
#165000
b1111 !
b1110 !
b11010 "
b11011 "
16
1G
0=
0:
1X
0O
0A
0@
0V
0J
1B
1>
1c
1a
1]
1I
0Y
1C
1K
1O
1U
0?
1f
1M
1J
0j
0d
0g
02
01
03
0Z
1[
1L
1i
1W
1N
1b
1^
0K
0&
0$
0%
1g
12
1`
1\
0b
0a
0L
1%
1j
1_
0R
1d
11
0/
10
13
1b
0^
0i
0f
1&
1#
0(
1$
0d
01
0$
1d
0_
0j
0g
02
03
00
11
1$
0#
0&
0%
#170000
b11001 "
b1100 !
b1101 !
1=
0<
08
0X
1S
0B
0O
1A
0P
04
1Y
1T
1O
0C
0'
1e
1Z
1h
0[
1f
0`
1i
0b
1g
1j
13
12
1%
1&
0d
01
0$
#175000
b101 !
b1001 "
b1101 "
15
07
0F
1w
09
0c
0]
1V
0O
0M
0J
0A
0I
1_
10
0h
0e
0N
1K
0Y
0T
1J
1#
1d
11
0i
0f
0\
1Q
0Z
0K
1$
0d
01
0Q
0$
0g
02
0%
#180000
b1 !
b101 "
b11 !
b1011 !
b1 "
05
0G
1<
0;
1F
0w
1D
1?
0V
0J
1B
0>
1I
0U
1K
1T
1O
1C
0D
0?
1M
1J
1g
1d
11
12
0W
1L
1[
1N
0K
1%
1$
0j
03
1\
0L
0&
0_
00
0#
#185000
b11011 !
b11010 !
b11110 !
b11100 !
b10100 !
b101 "
15
0=
0<
1;
0F
1:
1w
1?
1X
0S
0B
1>
1c
1]
1P
1R
1/
14
1U
1e
1Y
0T
0O
0C
0?
1`
1'
1(
0g
0d
01
02
1W
1f
1Z
1h
0[
1b
0%
0$
0`
1i
1g
1d
11
12
0b
1%
1$
1j
13
1&
0d
01
0$
#190000
b111 "
b10111 "
b11111 "
b10101 !
b10111 !
b11011 "
1=
1<
18
05
1G
17
0X
1S
0>
19
0w
1D
1?
0c
0]
0P
1_
10
04
0h
0Y
0U
0D
0e
0'
1#
0i
0W
0f
1d
11
1$
0_
00
0#
#195000
b11010 "
b111 !
b11 !
b1011 !
b10010 "
b10110 "
0;
1F
0:
06
15
0G
1c
1]
1B
0S
1O
1A
1@
09
1V
0M
0J
0R
1P
14
0/
1h
1e
1`
1^
1T
0O
1C
0Z
0?
1W
0N
1K
0(
1'
0j
0g
0d
01
02
03
1i
1f
1b
0h
1[
1L
0`
0\
0e
1a
0&
0%
0$
1_
1R
1/
10
1\
1N
0^
1#
1(
1j
1g
1d
11
12
13
1^
0a
0\
1&
1%
1$
0R
0_
00
0/
0i
0f
0b
0^
0(
0#
1_
10
1#
0j
0g
0d
0_
00
01
02
03
0&
0%
0$
0#
#200000
b110 "
b1010 !
b11010 !
b11110 !
b10110 !
b1110 "
b1010 "
0=
1;
0F
1:
05
1G
07
0@
1x
0A
0P
1R
1/
04
0C
1Q
0'
1(
0[
0L
0]
0R
0/
0N
0(
#205000
b1011 "
b10010 !
b11 "
0;
16
0G
1>
1X
0V
1M
1J
1P
14
1[
1U
1D
1?
1Y
0W
1N
0K
0Q
1'
1\
1W
1]
1R
1/
1h
1`
1(
1i
1b
1j
1d
11
13
1&
1$
#210000
b1 "
b10001 "
b10 !
b1010 !
1F
0:
08
17
0>
0x
1A
19
1V
0M
0J
0R
0/
0[
1Z
0D
0N
0`
1^
0\
1K
0(
0b
0h
1a
0^
1R
1_
10
1/
0i
1f
1(
1#
0d
0_
00
01
0$
0#
0j
1g
12
03
0&
1%
#215000
b1000 !
b1100 !
b11001 "
b11011 "
b11100 !
18
1G
0<
1;
1:
1O
0A
0V
1M
1J
0B
1>
0c
0a
0]
0I
1_
10
0T
0W
1N
0K
0O
0?
0f
0M
0J
1#
1j
13
1\
0N
1K
1&
0g
0_
0j
1d
11
03
00
02
0\
0%
0#
0&
1$
#220000
b11010 "
b10100 !
b10110 !
b10010 "
1<
0F
06
0G
1B
0>
1I
0X
1O
1A
1V
1J
0P
04
0Y
1T
0O
0U
1?
1W
0J
0K
0'
1j
0d
01
13
1U
1K
1&
0$
0j
1_
10
03
0&
1#
1d
11
1$
#225000
b10111 !
b10110 "
b10011 !
b10100 "
b11100 "
08
15
1G
1=
0;
1O
0A
0V
1M
1J
0B
1@
1>
1P
14
0T
1C
1N
0K
0O
0Z
0?
1'
1j
0d
01
13
1[
1\
1&
0$
0j
03
0&
#230000
b11 !
b11101 "
b1011 !
b1001 !
b11001 "
b1101 !
16
05
0<
1;
1F
0:
1S
1O
1A
0@
1c
1]
0P
0_
0R
0/
00
04
1T
1h
1Y
0C
1`
0'
0#
0(
1i
1e
1Z
0[
1b
1f
0`
1j
1d
11
13
0b
1&
1$
1g
12
1%
0d
01
0$
#235000
b11011 "
b11101 !
b11010 "
b11111 !
b11110 "
b11011 !
1<
0;
1:
06
18
15
0c
0]
0I
0S
1@
09
1_
1R
1P
14
1/
10
0h
0e
0W
0M
0J
0T
1[
0Z
1D
1?
1#
1(
1'
0i
0f
0N
0\
1K
0U
0_
1d
11
00
1\
1L
0#
1$
0d
01
1N
0$
0\
#240000
b1110 "
b11010 !
b1100 "
b1101 "
b1001 "
b11110 !
0=
1;
16
08
05
07
1X
1B
0@
0>
0O
0A
1c
1]
1V
1J
1h
0Y
1O
1C
0[
1Z
0D
0?
1`
1\
0K
0j
0g
02
03
1i
0Z
0h
1[
0L
1b
0`
1^
0&
0%
1`
0i
0b
0N
1j
1d
1_
10
11
13
1b
1a
0`
0\
1&
1$
1#
0j
0d
0R
0/
01
03
1i
1f
0b
0^
0&
0$
0(
1d
11
1$
1j
1g
0d
0_
00
01
12
13
1&
1%
0$
0#
#245000
b1 "
b1110 !
b1100 !
b10001 "
b10000 "
b10100 "
b1000 !
0<
0;
0:
06
15
0G
17
0E
0B
1I
0X
19
1R
0P
04
1/
0O
0C
1^
1W
0J
0[
1Z
1?
1(
0'
0i
0^
1K
1_
10
1#
0j
0_
00
03
0&
0#
#250000
b0 !
b1 !
b10110 "
b11 !
b110 "
b10 "
18
05
07
1=
1<
0F
1O
1x
09
0c
0a
0]
0V
1M
1J
1E
1B
1@
0I
1_
0R
1P
14
0/
10
1T
1C
0Z
0?
0f
0W
1N
0K
0O
0M
0J
1#
0(
1'
1j
1d
11
13
1[
0N
1K
1&
1$
0_
0j
0d
01
03
00
1\
1L
0#
0&
0$
1N
0\
#255000
b1010 "
b10011 !
b10111 !
b1000 "
b11000 "
b11100 "
1;
1:
08
15
1G
17
1I
0B
1O
0x
19
1R
1/
1M
1J
0T
0O
0[
1Z
1U
1?
1(
1j
13
1\
0K
0U
1W
0L
1&
0j
03
0W
0&
1d
1_
10
11
1$
1#
0_
00
0#
#260000
b11111 !
b11110 !
b1110 !
b11110 "
18
0=
1F
0:
1O
1A
09
1B
0@
1>
1c
1]
0P
0R
0/
04
1h
1T
0C
1[
0Z
1D
0O
1e
0'
0(
0g
0d
01
02
1i
1U
1f
1`
0h
0%
0$
1W
1b
0i
1j
1g
12
13
1&
1%
1d
0j
03
11
1$
0&
#265000
b11111 "
b1100 !
b10111 "
b1000 !
b0 !
b1 !
1=
0<
0;
0F
16
0G
1S
0B
0>
0I
1O
0A
1V
0M
0J
0T
0O
0[
0U
0D
0?
1^
1J
1h
0N
0`
0\
1K
1i
0h
1Q
0b
0W
0e
0^
0K
1a
1_
1R
1/
10
0i
0a
0]
0f
0Q
1b
1#
1(
1j
0R
0d
0_
00
01
0/
13
0b
1a
1]
1&
0(
0$
0#
0j
0g
1R
1d
11
1/
02
03
1b
0&
0%
1(
1$
0d
01
0$
1d
11
1$
#270000
b111 "
b11 "
b10001 !
b10 "
b1010 "
b10000 !
0=
1:
06
05
1G
07
0S
0E
1I
1O
1x
0R
0/
0I
1k
1^
1W
0J
1i
1Y
0(
0^
0W
1J
0b
1Z
1_
1j
13
10
1b
1#
1&
0_
0d
01
00
0#
0$
1d
11
1$
#275000
b1000 "
b10100 !
b1100 "
b100 "
b10101 !
1=
1;
08
15
0G
1E
1B
1@
0O
0x
1w
1?
0V
0J
1P
14
1I
0k
0Y
1O
1C
1f
0b
1'
1M
1J
1K
0i
0f
1g
0d
01
12
1N
1b
1^
0K
1%
0$
0j
0g
02
03
1h
1e
0a
1\
0&
0%
1R
1d
1_
10
11
1/
1i
1f
0b
0^
1(
1$
1#
1j
1g
0d
0_
00
01
12
13
1&
1%
0$
0#
#280000
b10111 !
b11111 !
b110 "
b11011 !
b1110 "
18
1G
1<
0;
1F
0O
1x
1V
0M
0J
0B
1>
0I
0h
1Y
0C
0N
1`
1^
1K
1O
1[
0Z
1U
0?
1J
0i
0e
1Z
0[
1a
0`
0\
1b
1W
0K
0R
1_
10
0/
0f
0^
0(
1#
0j
1d
11
03
0&
1$
0g
0_
00
02
0%
0#
#285000
b1011 !
b1111 "
b1011 "
b1001 !
b1 !
b1001 "
b101 !
16
08
05
0<
1;
0F
0:
1S
0O
0@
0x
0w
1D
1?
0c
0a
0]
0P
1_
10
04
0Y
1[
0Z
0U
0b
0'
1#
1j
1g
12
13
0W
1&
1%
0_
00
0#
#290000
b11001 "
b10001 "
b10000 "
b1101 !
1F
06
0G
17
1I
0S
0H
1@
1c
1a
1]
1P
1R
1/
14
1^
1W
1M
0V
1p
1i
1C
1f
1'
1(
0j
0g
0d
01
02
03
1N
0W
0f
0&
0%
0$
1_
1j
1g
12
13
10
1e
0a
1`
1\
1#
1&
1%
0R
0g
02
0/
1f
0i
1b
0^
0(
0%
1g
0j
1d
0_
00
11
03
12
1%
0&
1$
0#
#295000
b1100 !
b10100 "
b10110 "
b110 "
b111 "
b100 !
16
18
15
07
0=
0F
1X
1O
1H
0@
1x
1w
0D
0?
0c
0]
0p
0I
1Y
0M
0J
0C
1U
0e
0`
1j
13
1Z
0N
0b
0\
1K
0f
0[
1&
0g
02
0%
#300000
b110 !
b1111 "
b111 !
b1011 "
b11011 "
b1111 !
05
1G
17
1=
1<
1F
0w
1D
1?
19
1c
1a
1]
0O
0x
0X
1S
1B
1I
1R
0P
04
1/
1L
1f
0D
0?
0Y
1T
1C
1O
1W
1M
1J
1(
0'
0j
0d
01
03
1N
0Z
1[
1i
1b
1^
0K
0&
0$
1g
12
1h
0a
1`
1\
0b
0L
1%
0R
1j
1d
1_
10
11
13
0/
0f
1b
0^
0(
1&
1$
1#
0d
01
0$
0g
1d
0_
00
11
02
0%
1$
0#
#305000
b11010 "
b10010 "
b1110 !
b10 "
0=
06
0G
07
0S
0O
09
0c
0]
1x
1_
10
0h
1D
1?
0`
0C
1#
1g
12
0i
0b
1%
0g
02
0%
0j
0d
01
03
0&
0$
#310000
b1010 !
b110 "
b10 !
b1110 "
b11110 "
15
1G
17
0;
0F
1c
1]
0x
1A
0>
0I
0_
00
1e
1`
1^
0[
0U
0D
0?
0W
0M
0J
0#
1f
1b
0\
0e
0N
0`
1K
1_
10
0^
0f
1a
0b
1Q
1#
1g
1d
1R
1/
11
12
0a
0]
1%
1$
1(
0_
0g
0d
0R
0/
01
02
00
0#
0%
0$
0(
#315000
b11100 "
b11000 "
b1010 !
b10000 "
b0 "
1F
08
05
0G
07
1I
1O
0H
0A
0c
1M
1J
0Q
0T
1C
1j
1g
12
13
1N
0K
1[
1L
1&
1%
1d
0g
02
11
1\
0L
1$
0%
#320000
b11010 !
b10010 !
b1000 "
1G
0F
1:
1V
0M
0J
1c
1]
1>
1R
1/
1W
0N
1^
0\
1K
1h
1D
1?
1(
0d
0j
03
01
0h
1a
1\
0^
1L
1i
0$
0&
1_
0R
0/
10
1b
1^
1N
1#
0(
0_
1j
13
00
1h
1e
0a
0\
0#
1&
1d
1_
1R
1/
10
11
1f
0b
0^
1$
1#
1(
1g
0d
0_
00
01
12
1%
0$
0#
#325000
b10000 !
b10100 !
b1010 "
b1110 "
b110 "
18
15
0G
0<
1;
0O
1H
1x
1w
0D
0?
0V
1M
1J
0B
0h
1Q
1Y
0C
1U
0e
0W
1`
1^
1\
0K
1O
0i
0]
1e
1Z
0f
0[
0L
1W
1b
0^
0Q
1h
0R
1_
10
0/
0h
0e
0`
1f
1]
1i
0(
1#
0j
0g
0_
1d
1R
1/
11
00
02
03
0i
0f
0b
1h
1e
0&
0%
0#
1$
1(
1g
1j
13
12
1i
1f
1%
1&
0j
0g
0d
01
02
03
0&
0%
0$
1j
1g
12
13
1&
1%
#330000
b111 "
b10111 "
b11100 !
b11110 !
b10011 "
b11011 "
1<
1F
16
05
1G
17
1B
0>
0I
1X
0O
19
0w
1D
1?
0c
0]
0x
1P
1_
10
14
0Y
1O
1C
0U
0D
0W
0M
0J
0h
0e
1'
1#
0i
0f
0N
1K
0_
00
0\
0#
#335000
b11111 !
b11011 !
b11001 !
1=
0<
0;
0X
1S
1>
0P
04
1T
1[
0Z
1U
0?
0'
0j
03
1\
1L
0&
1d
11
1N
1$
0\
