simulation/qsim/comparador.msim.vcd
$comment
	File created using the following command:
		vcd file comparador.msim.vcd -direction
$end
$date
	Fri Feb 03 13:34:48 2023
$end
$version
	ModelSim Version 2020.1
$end
$timescale
	1ps
$end

$scope module MaiorQueOK_vlg_vec_tst $end
$var reg 5 ! MA [4:0] $end
$var reg 5 " MB [4:0] $end
$var wire 1 # SAIDA $end

$scope module i1 $end
$var wire 1 $ gnd $end
$var wire 1 % vcc $end
$var wire 1 & unknown $end
$var tri1 1 ' devclrn $end
$var tri1 1 ( devpor $end
$var tri1 1 ) devoe $end
$var wire 1 * SAIDA~output_o $end
$var wire 1 + MB[4]~input_o $end
$var wire 1 , MA[4]~input_o $end
$var wire 1 - MA[3]~input_o $end
$var wire 1 . MB[3]~input_o $end
$var wire 1 / MA[2]~input_o $end
$var wire 1 0 MB[2]~input_o $end
$var wire 1 1 MA[1]~input_o $end
$var wire 1 2 MA[0]~input_o $end
$var wire 1 3 MB[0]~input_o $end
$var wire 1 4 MB[1]~input_o $end
$var wire 1 5 inst3~0_combout $end
$var wire 1 6 inst3~1_combout $end
$var wire 1 7 inst3~2_combout $end
$var wire 1 8 inst3~3_combout $end
$upscope $end
$upscope $end
$enddefinitions $end
#0
$dumpvars
b1 !
b11000 "
1#
0$
1%
x&
1'
1(
1)
1*
1+
0,
0-
1.
0/
00
01
12
03
04
15
16
07
18
$end
#5000
b1001 !
b1101 !
b1111 !
b1110 !
b1000 "
b0 "
b100 "
b110 "
14
10
0.
0+
02
11
1/
1-
05
17
08
0*
06
0#
18
1*
1#
#10000
b11110 !
b111 "
b10110 !
b10010 !
b10000 !
b11 "
13
00
01
0/
0-
1,
07
08
0*
0#
#15000
b1011 "
b0 !
b1010 "
b1000 !
b1110 "
1-
0,
03
10
1.
#20000
b1001 !
b1010 "
00
12
#25000
b11010 "
b1101 !
b1111 !
b10010 "
b111 !
b110 !
b10110 "
02
11
1/
0-
10
0.
1+
18
1*
1#
#30000
b10110 !
b10111 "
b111 "
b10010 !
b1111 "
b10011 !
b1011 "
13
00
1.
0+
12
0/
1,
08
0*
0#
#35000
b1001 "
b11 !
b1000 "
b11000 "
b10000 "
0,
03
04
0.
1+
15
18
1*
16
1#
17
#40000
b1011 !
b1010 !
b10100 "
b100 "
10
0+
02
1-
06
#45000
b1110 !
b110 "
b111 "
b110 !
b11 "
b10011 "
13
14
00
1+
1/
0-
05
16
07
17
#50000
b10110 !
b10010 !
b10010 "
b10 "
03
0+
0/
1,
06
08
0*
07
0#
#55000
b10000 !
b0 !
01
0,
#60000
b1010 "
b1 !
b1000 "
b1001 !
b11000 "
b1011 !
12
11
1-
04
1.
1+
15
18
1*
16
1#
17
#65000
b11001 "
b11011 !
b10001 "
b10011 "
b11 "
1,
13
14
0.
0+
05
08
0*
06
0#
#70000
b111 "
b11111 !
b11110 !
b10110 !
b110 "
b110 !
02
1/
0-
0,
03
10
07
18
1*
1#
08
0*
0#
#75000
b100 !
b0 !
b111 "
b10000 !
13
01
0/
1,
#80000
b101 "
b10101 "
b11000 !
b11100 !
b10100 "
1/
1-
03
04
1+
17
18
1*
1#
#85000
b11100 "
b11101 !
b11111 !
b1100 "
b11011 !
b1101 "
12
11
0/
13
1.
0+
15
07
08
0*
0#
#90000
b1011 !
b1111 "
b11 !
b111 "
b111 !
b110 "
03
14
0.
1/
0-
0,
16
17
18
1*
1#
#95000
b110 !
b10110 "
b10110 !
b10100 "
04
1+
02
1,
#100000
b10100 !
b100 !
b10110 "
14
01
0,
05
06
07
#105000
b1100 !
b11110 "
b1101 !
b1111 !
b11111 !
1.
12
11
1-
1,
15
08
0*
16
0#
17
18
1*
1#
#110000
b11010 "
b11011 "
b1011 "
b10111 !
b10101 !
b101 !
01
0-
0,
13
00
0+
05
07
08
0*
0#
#115000
b1 !
b1001 "
b0 !
b1101 "
b1100 "
b11100 "
b10 !
03
04
10
1+
02
11
0/
15
06
18
1*
1#
#120000
b1010 !
b11010 !
b11110 !
b11110 "
b11010 "
b11011 "
b1011 "
13
14
00
0+
1/
1-
1,
05
16
08
0*
17
0#
#125000
b11 "
b11100 !
b10100 !
b100 !
b1 "
b0 "
01
0-
0,
03
04
0.
18
1*
1#
#130000
b0 !
b100 "
b1100 "
b10 !
b1110 "
14
10
1.
11
0/
06
07
08
0*
0#
#135000
b11 !
b1011 !
b11011 !
b1111 "
b1011 "
b11 "
b11001 !
b1 "
13
04
00
0.
12
01
1-
1,
17
#140000
b10001 "
b10001 !
b10000 "
b10100 "
b11100 "
b11110 "
0-
03
14
10
1.
1+
07
18
1*
1#
08
0*
0#
#145000
b10101 !
b10100 !
b100 !
b1110 "
b110 "
0.
0+
02
1/
0,
#150000
b110 !
b111 "
b11 "
b10 !
13
00
11
0/
#155000
b1010 !
b1 "
b11010 !
b1001 "
b1101 "
b11110 !
04
10
1.
1/
1-
1,
15
16
17
#160000
b11111 !
b11101 "
b11101 !
b1101 !
b10101 "
b1001 !
0.
1+
12
01
0/
0,
05
06
18
1*
1#
#165000
b1 !
b10111 "
b10011 "
b0 !
b11 "
b10000 !
14
00
0+
02
0-
1,
07
08
0*
0#
#170000
b1011 "
b10100 !
b11100 !
b1001 "
b11001 "
b1100 !
1/
1-
0,
04
1.
1+
16
18
1*
17
1#
#175000
b11000 "
b1000 "
03
0+
#180000
b1110 !
b1111 !
b1011 !
b11 !
b1010 "
b10011 !
b1011 "
b11011 "
13
14
1+
12
11
0/
0-
1,
06
07
08
0*
0#
#185000
b11 !
b11010 "
b1010 "
03
0+
0,
15
16
#190000
b1110 "
b1 !
b101 !
b1101 !
b1100 "
b11101 !
01
1/
1-
1,
04
10
17
#195000
b100 "
b11100 !
b10100 "
b10100 !
b100 !
02
0-
0,
0.
1+
05
18
1*
06
1#
07
#200000
b10101 "
b101 "
b1100 !
1-
13
0+
17
08
0*
0#
18
1*
1#
#205000
b1110 !
b1010 !
b111 "
b1111 "
b1011 !
b11011 !
b11111 "
b10011 !
14
1.
1+
12
11
0/
0-
1,
07
08
0*
0#
#210000
b11011 "
b10111 !
b111 !
1/
0,
00
16
18
1*
1#
#215000
b11010 "
b11000 "
b1111 !
b11100 "
b1011 !
0/
1-
03
04
10
06
17
15
07
#220000
b1100 "
b1101 "
b11 !
0-
13
0+
08
0*
0#
#225000
b101 "
b111 !
1/
0.
16
17
18
1*
1#
#230000
b10101 "
b1111 !
b11101 "
1-
1.
1+
#235000
b1110 !
b11110 !
b11111 "
b1111 "
14
0+
02
1,
05
08
0*
06
0#
07
#240000
b1011 "
b11010 !
b10010 !
b10 !
0/
0-
0,
00
#245000
b1010 "
b10 "
b11 !
b0 "
b10000 "
b111 !
b1111 !
b11111 !
12
1/
1-
1,
03
04
0.
1+
15
16
17
18
1*
1#
#250000
b11101 !
b10001 "
b1 "
b11001 !
b1001 !
13
0+
01
0/
0,
05
06
#255000
b101 "
b1000 !
b111 "
b0 !
b10 !
b10111 "
02
11
0-
14
10
1+
07
#260000
b10110 "
b110 !
b10110 !
b10010 "
b10000 "
b10100 !
01
1/
1,
03
04
00
16
08
0*
17
0#
18
1*
1#
#265000
b10101 !
b11101 !
b0 "
b11001 !
b1001 !
b100 "
10
0+
12
0/
1-
0,
06
15
#270000
b1100 "
b1101 "
b1 !
b11101 "
b10001 !
0-
1,
13
1.
1+
07
05
08
0*
0#
#275000
b11111 "
b10000 !
b10100 !
b11011 "
b10011 "
b10010 "
b100 !
02
1/
0,
03
14
00
0.
16
18
1*
17
1#
#280000
b10 "
b0 "
b101 !
b1 "
12
13
04
0+
#285000
b111 !
b11 !
b1001 "
b10011 !
1.
11
0/
1,
07
15
06
08
0*
16
0#
#290000
b1011 "
b10010 !
b1010 "
b10110 !
b110 !
02
1/
0,
03
14
05
#295000
b1110 !
b1110 "
b1100 !
b110 "
b111 "
b11100 !
13
10
0.
01
1-
1,
06
17
#300000
b11101 !
b11001 !
b110 "
b1001 !
03
12
0/
0,
18
1*
1#
#305000
b1 !
b10 "
b1010 "
b101 !
b1011 "
b10101 !
13
00
1.
1/
0-
1,
16
07
08
0*
0#
#310000
b10111 !
b1111 "
b111 "
b110 "
03
10
0.
11
15
06
17
16
07
17
#315000
b10110 "
b10110 !
b11110 !
b11100 !
b10010 "
b11010 "
02
01
1-
00
1.
1+
05
18
1*
1#
#320000
b1100 !
b100 !
b11110 "
10
0-
0,
06
07
#325000
b11100 "
b0 !
b1 !
b11 !
12
11
0/
04
15
#330000
b1100 "
b100 "
b1011 !
b110 "
b1001 !
01
1-
14
0.
0+
05
17
08
0*
0#
18
1*
1#
#335000
b10 "
b1101 !
b1100 !
b1010 "
b1000 "
b1110 !
02
11
1/
04
00
1.
15
16
07
17
08
0*
0#
18
1*
1#
#340000
b1001 "
b1010 !
b1 "
b1000 !
01
0/
13
0.
05
06
#345000
b11000 !
b101 "
b111 "
b11100 !
b1111 "
b11110 !
14
10
1.
11
1/
1,
07
08
0*
0#
#350000
b11111 "
b10110 !
b11110 "
b11010 "
b10010 !
b10000 !
01
0/
0-
03
00
1+
#355000
b11000 "
b11001 "
b10100 !
1/
13
04
16
#360000
b1001 "
b11100 !
b1101 "
b11110 !
b1100 "
b11010 !
11
0/
1-
03
10
0+
15
06
17
07
#365000
b1010 !
b11100 "
b11000 "
b11001 "
b1110 !
13
00
1+
1/
0,
16
18
1*
17
1#
#370000
b1111 !
b11111 !
b11000 "
03
12
1,
#375000
b10000 "
b11101 !
b0 "
b11001 !
b11000 !
b1000 !
02
01
0/
0,
0.
0+
05
06
#380000
b10 "
b0 !
b110 "
b1110 "
b10 !
b110 !
b111 !
b10111 !
12
11
1/
0-
1,
14
10
1.
15
07
08
0*
16
0#
#385000
b1111 "
b11111 "
b11101 "
b10011 !
b10010 !
b10 !
02
0/
0,
13
04
1+
06
18
1*
1#
#390000
b1010 !
b11001 "
b1000 !
b1001 "
b1100 !
00
0+
01
1/
1-
16
05
08
0*
17
0#
18
1*
1#
#395000
b1000 "
b1101 !
b11101 !
b10101 !
b1100 "
b10111 !
12
11
0-
1,
03
10
15
07
06
08
0*
16
0#
#400000
b100 "
b10100 "
b10011 !
b10101 "
b11 !
b10001 "
b1 !
01
0/
0,
13
00
0.
1+
05
17
18
1*
06
1#
07
#405000
b10011 "
b1001 !
b11 "
b11001 !
b111 "
b11011 !
11
1-
1,
14
10
0+
17
08
0*
0#
#410000
b11010 !
b1111 "
b11110 !
b10110 !
b110 !
b1011 "
b100 !
00
1.
02
01
1/
0-
0,
16
07
18
1*
1#
08
0*
0#
#415000
b1001 "
b11001 "
b101 !
b1101 !
b11101 !
b11101 "
12
1-
1,
04
10
1+
17
06
07
18
1*
1#
08
0*
0#
#420000
b11111 "
b10101 !
b101 !
b11011 "
0-
0,
14
00
16
18
1*
1#
#425000
b111 !
b1011 "
b110 !
b1001 "
b1110 !
b1101 "
04
10
0+
02
11
1-
15
06
17
08
0*
16
07
0#
18
1*
17
1#
08
0*
0#
18
1*
1#
#430000
b1100 "
b100 "
b10100 "
b10110 "
b10010 "
03
14
00
0.
1+
05
#435000
b11110 !
b11100 !
b11101 !
b10101 !
b11010 "
b11000 "
b11100 "
04
10
1.
12
01
0-
1,
15
06
07
16
08
0*
0#
#440000
b10001 !
b1100 "
b1110 "
b1010 "
14
00
0+
0/
05
06
#445000
b1011 "
b11 "
b10011 "
b10111 "
13
10
0.
1+
#450000
b10011 !
b10010 !
b11010 !
b11110 !
b10101 "
b10001 "
04
00
02
11
1/
1-
15
16
17
18
1*
1#
#455000
b1110 !
b1 "
b110 !
b10 !
b101 "
10
0+
0/
0-
0,
06
07
08
0*
0#
#460000
b1101 "
b0 !
b1111 "
b11111 "
b1000 !
b1100 !
01
1/
1-
14
1.
1+
05
16
18
1*
06
17
1#
07
#465000
b11110 "
b1101 !
b11010 "
b1111 !
b1010 "
b111 !
b11 !
12
11
0/
0-
03
00
0+
15
08
0*
16
0#
#470000
b10 "
b0 "
b10 !
b100 "
b10100 "
02
04
10
0.
1+
06
17
18
1*
07
1#
#475000
b1010 !
b1110 !
b10000 "
b0 "
00
0+
1/
1-
16
17
08
0*
0#
18
1*
1#
#480000
b1 "
b1100 !
b1001 "
b1011 "
b11011 "
01
13
14
1.
1+
05
#485000
b1101 !
b11010 "
b10010 "
b10000 "
03
04
0.
12
15
#490000
b1001 !
b10100 "
b100 "
b1000 !
b110 "
14
10
0+
02
0/
05
06
#495000
b11000 !
b10000 !
b10010 !
b111 "
b1111 "
b11111 "
13
1.
1+
11
0-
1,
07
08
0*
0#
#500000
b10110 !
b11011 "
b11001 "
b11000 "
03
04
00
1/
15
16
#505000
b10111 !
b11111 !
b11101 !
b1000 "
b11001 !
b1010 "
14
0+
12
01
0/
1-
05
17
06
07
#510000
b1001 !
b10 "
b1000 !
b0 !
0.
02
0-
0,
#515000
b110 "
b111 "
b10111 "
b10101 "
b10000 !
b11101 "
1,
13
04
10
1.
1+
#520000
b10010 !
b10110 !
b10111 !
b11111 !
b11001 "
b11000 "
b1000 "
b1010 "
03
14
00
0+
12
11
1/
1-
15
16
17
#525000
b1111 !
b1101 !
b1000 "
04
01
0,
18
1*
1#
#530000
b1100 !
b100 !
b1100 "
b11100 "
10
1+
02
0-
05
07
06
#535000
b0 !
b10000 !
b11110 "
b11000 !
14
0/
1-
1,
08
0*
0#
#540000
b10110 "
b10111 "
b11010 !
b10011 "
b11 "
b11110 !
b1110 !
11
1/
0,
13
00
0.
0+
16
17
18
1*
1#
#545000
b1111 !
b1 "
b111 !
b101 !
b101 "
b10101 "
04
10
1+
12
01
0-
06
07
#550000
b1 !
b0 !
b1000 !
b10001 "
00
02
0/
1-
17
#555000
b10000 "
b11000 !
b10010 "
b11010 !
b10 "
11
1,
03
14
0+
08
0*
0#
#560000
b110 "
b111 "
b1010 !
b101 "
b1000 !
b10101 "
01
0,
13
04
10
1+
18
1*
1#
#565000
b11101 "
b11001 "
b11000 "
b11010 "
b1010 !
b1010 "
11
03
14
00
1.
0+
07
08
0*
0#
#570000
b1110 !
b1111 !
b10 "
b11 "
13
0.
12
1/
17
16
18
1*
1#
#575000
b111 !
b10111 !
b111 "
b10101 !
b10111 "
b10100 !
b11111 "
b11110 "
03
10
1.
1+
02
01
0-
1,
06
07
08
0*
0#
#580000
b11100 !
b11101 !
b11111 "
13
12
1-
#585000
b11001 !
b11011 !
b10111 "
b10011 !
b10110 "
03
0.
11
0/
0-
15
#590000
b10100 "
b100 "
b10111 !
b10101 !
01
1/
04
0+
16
17
#595000
b0 "
b10100 !
b1000 "
b1010 "
b11010 "
b10110 !
02
11
14
00
1.
1+
05
07
18
1*
1#
08
0*
0#
#600000
b110 !
b1110 !
b11011 "
b1010 !
b11111 "
b1011 !
b11101 "
b1101 "
b1001 !
13
04
10
0+
12
01
0/
1-
0,
06
17
07
18
1*
1#
08
0*
0#
#605000
b11001 !
b10001 !
b10000 !
b1111 "
b10010 !
14
02
11
0-
1,
#610000
b111 "
b110 "
b10110 !
b10 "
b10111 !
b0 "
b10101 !
12
01
1/
03
04
00
0.
15
16
17
#615000
b1 "
b10001 !
b10000 !
02
0/
13
05
06
07
#620000
b0 !
b1001 "
b1101 "
b1100 "
b100 !
b101 !
03
10
1.
12
1/
0,
15
16
#625000
b11100 "
b111 !
b10111 !
b10100 "
b10101 "
b10011 !
11
0/
1,
13
0.
1+
06
17
07
18
1*
1#
08
0*
0#
#630000
b11011 !
b10111 "
b11010 !
b111 "
b11000 !
b1000 !
14
0+
02
01
1-
0,
05
17
18
1*
1#
#635000
b1111 "
b1100 !
b1101 "
b1101 !
b11101 "
12
1/
04
1.
1+
07
#640000
b11001 "
b11000 "
b101 !
b111 !
b10111 !
b10000 "
b10011 !
b10010 !
b0 "
02
11
0/
0-
1,
03
00
0.
0+
15
08
0*
16
0#
17
#645000
b10 "
b11010 !
b1010 !
b1110 !
b10010 "
1/
1-
0,
14
1+
05
18
1*
1#
#650000
b10110 "
b1100 !
b1101 !
b10100 "
b101 !
b10101 !
b10001 !
12
01
0/
0-
1,
04
10
15
06
07
08
0*
0#
#655000
b100 "
b10011 !
b10010 !
b110 "
b11010 !
b1010 !
b1110 !
02
11
1/
1-
0,
14
0+
05
16
17
06
18
1*
1#
#660000
b111 "
b11 "
b1100 !
b1101 !
b1 "
b101 !
12
01
0-
13
04
00
07
16
17
08
0*
0#
18
1*
1#
#665000
b1001 "
1.
07
08
0*
0#
#670000
b10101 !
b10001 !
b10011 !
b10010 !
b1011 "
b11010 !
b11 "
14
0.
02
11
0/
1-
1,
17
06
#675000
b1010 !
b1 "
b1001 "
04
1.
0,
15
07
18
1*
16
1#
08
0*
17
0#
18
1*
1#
#680000
b1000 !
b0 !
b10000 !
b1 "
0.
01
0-
1,
05
08
0*
06
0#
07
#685000
b0 "
b100 "
b110 "
b11000 !
1-
03
14
10
17
#690000
b10110 "
b11001 !
b1001 !
b11110 "
b11010 "
b11000 "
b1 !
12
0-
0,
04
00
1.
1+
15
07
18
1*
16
1#
#695000
b11001 "
b0 !
b11011 "
02
13
14
05
06
#700000
b1011 "
b10000 !
b1111 "
b11000 !
b1110 "
1-
1,
03
10
0+
08
0*
0#
#705000
b11100 !
b11110 "
b1100 !
b100 !
1+
1/
0-
0,
18
1*
1#
#710000
b11010 "
00
16
#715000
b110 !
b11011 "
b10 !
b1011 "
13
0+
11
0/
06
08
0*
0#
#720000
b11 !
b1001 "
b1011 !
b1001 !
b1000 "
03
04
12
01
1-
15
16
17
18
1*
1#
#725000
b0 "
b100 "
b1101 !
b1100 !
b110 "
b1110 !
b111 "
02
11
1/
13
14
10
0.
05
06
#730000
b11110 !
b1111 "
b1011 "
b11111 !
b11101 !
00
1.
12
01
1,
16
07
08
0*
17
0#
#735000
b10101 !
b1001 "
b1000 "
b101 !
b1100 "
b100 !
b110 !
03
04
10
02
11
0-
0,
15
06
07
18
1*
16
1#
08
0*
0#
#740000
b11100 "
b10100 "
b1110 !
b1100 !
01
1-
0.
1+
05
17
18
1*
06
1#
#745000
b1000 !
b1001 !
b1 !
b11 !
12
11
0/
0-
15
07
#750000
b10110 "
b10011 !
b10010 !
b10000 !
02
01
1,
14
05
08
0*
0#
#755000
b110 "
b11000 !
b1000 !
b1001 !
12
1-
0,
0+
17
18
1*
1#
#760000
b10 "
b1010 "
b1101 !
b11010 "
1/
00
1.
1+
16
07
17
#765000
b101 !
b1 !
0/
0-
06
07
#770000
b11011 "
b11 !
b10011 !
b10010 !
02
11
1,
13
08
0*
0#
#775000
b11001 "
b11000 "
b10000 !
b0 !
b1 !
12
01
0,
03
04
15
18
1*
16
1#
#780000
b11100 "
b1100 "
b101 !
b111 !
11
1/
10
0+
08
0*
0#
#785000
b100 "
b110 "
b111 "
b101 !
01
13
14
0.
05
17
06
18
1*
07
1#
08
0*
0#
#790000
b10101 !
b1111 "
b1101 "
b1100 "
b10111 !
03
04
1.
11
1,
15
16
#795000
b1000 "
b10011 !
b1010 "
b10001 !
01
0/
14
00
05
06
#800000
b11001 !
b11000 !
b11010 "
b1000 !
b10010 "
b10011 "
b10001 "
b1010 !
13
04
0.
1+
02
11
1-
0,
15
17
18
1*
16
1#
#805000
b10101 "
b1110 !
b1111 !
b11111 !
b10100 "
b11101 !
12
01
1/
1,
03
10
#810000
b10110 "
b11001 !
b1001 !
b1011 !
11
0/
0,
14
06
#815000
b11 !
b11110 "
b10 !
b11111 "
b11101 "
b10010 !
b10000 !
13
04
1.
02
01
0-
1,
05
07
08
0*
0#
#820000
b10100 !
b11100 !
b11111 "
b11110 !
14
11
1/
1-
#825000
b10111 "
b11111 !
b10101 "
12
04
0.
15
17
16
18
1*
1#
#830000
b101 "
b1 "
b10111 !
b10101 !
b1001 "
b10100 !
b1011 "
02
01
0-
14
00
1.
0+
05
07
08
0*
0#
#835000
b1111 "
b111 "
b10101 !
12
10
0.
06
17
07
#840000
b10111 "
b11101 !
b10101 "
b11101 "
1-
04
1.
1+
#845000
b11100 "
b1101 !
b1001 !
b11000 "
b1000 !
b1000 "
b1010 "
02
0/
0,
03
14
00
0+
#850000
b0 !
b10000 !
b1110 "
b11110 "
10
1+
0-
1,
#855000
b10110 "
b10111 "
b10100 !
b10101 "
b100 !
1/
0,
13
04
0.
18
1*
1#
#860000
b101 !
b10001 "
b1 "
b1001 "
00
1.
0+
12
16
08
0*
0#
#865000
b111 !
b1111 !
b1011 "
b11111 !
b11011 "
14
1+
11
1-
1,
17
18
1*
1#
#870000
b11010 "
b11110 "
b11101 !
b10101 !
01
0-
03
10
07
06
08
0*
0#
#875000
b11100 "
b1100 "
b1101 "
b1001 "
13
04
00
0+
16
#880000
b10001 !
b1000 "
b1100 "
03
10
0/
15
06
#885000
b100 "
b1 !
b101 !
b101 "
1/
0,
13
0.
16
05
17
06
07
18
1*
1#
08
0*
0#
#890000
b111 !
b111 "
b10111 "
b10011 "
b10111 !
b10011 !
b10010 "
03
14
00
1+
11
0/
1,
15
16
17
18
1*
1#
#895000
b11010 "
b10001 !
b1 !
b11011 "
01
0,
13
1.
05
07
06
#900000
b1001 !
b11001 "
b11101 "
b1101 !
04
10
1/
1-
#905000
b10101 "
b1111 !
b11111 !
b10100 "
11
1,
03
0.
15
17
08
0*
16
0#
18
1*
1#
#910000
b10111 !
b11100 "
b11101 "
13
1.
0-
07
08
0*
0#
#915000
b1101 "
b1001 "
b111 !
b1 "
0,
00
0.
0+
17
18
1*
1#
#920000
b110 !
b100 !
b10001 "
b10101 "
b10100 !
b11101 "
10
1.
1+
02
01
1,
07
05
06
08
0*
0#
#925000
b11111 "
b10000 !
b1111 "
b1011 "
b0 !
b11 "
0/
0,
14
00
0.
0+
#930000
b10 "
b100 !
1/
03
16
17
18
1*
1#
#935000
b1100 !
b1101 !
b1111 !
b10010 "
b11111 !
b11010 "
b11011 "
13
1.
1+
12
11
1-
1,
#940000
b11001 "
b11011 !
b11010 !
b1001 "
b1010 !
02
0/
0,
04
0+
15
06
16
07
17
08
0*
0#
18
1*
1#
#945000
b1101 "
b1000 !
b101 "
b100 "
b1001 !
b10100 "
12
01
03
10
0.
1+
06
#950000
b1 !
b10110 "
b10111 "
b0 !
13
14
02
0-
05
07
#955000
b100 !
b110 !
b111 "
b1110 !
b110 "
03
0+
11
1/
1-
17
08
0*
0#
18
1*
1#
#960000
b11110 !
b11111 !
b11101 !
b111 "
13
12
01
1,
08
0*
0#
#965000
b11 "
b11001 !
b11000 !
b10 "
02
0/
03
00
#970000
b10000 !
b0 !
b10 !
b110 !
b11 "
13
11
1/
0-
0,
16
07
18
1*
17
1#
08
0*
0#
18
1*
1#
#975000
b1 "
b10001 "
b10101 "
b1110 !
b11110 !
b10100 "
1-
1,
03
04
10
1+
15
06
16
#980000
b11100 "
b11111 !
b11101 !
b1100 "
b1000 "
12
01
00
1.
0+
08
0*
0#
#985000
b11001 !
b11000 "
1+
0/
18
1*
1#
#990000
b10001 !
b10000 "
b10000 !
b10100 "
b10100 !
b100 "
10
0.
0+
02
1/
0-
05
08
0*
06
0#
07
#995000
b110 "
b100 !
b111 "
b110 !
b1110 !
b11 "
11
1-
0,
13
14
00
17
16
18
1*
1#
