simulation/qsim/comparador.msim.vcd
$comment
	File created using the following command:
		vcd file comparador.msim.vcd -direction
$end
$date
	Sat Feb 11 00:07:03 2023
$end
$version
	ModelSim Version 2020.1
$end
$timescale
	1ps
$end

$scope module SomadorSubtratorOK2_vlg_vec_tst $end
$var reg 5 ! A [4:0] $end
$var reg 5 " B [4:0] $end
$var wire 1 # AMaior $end
$var wire 1 $ BMaior $end
$var wire 1 % ComA [4] $end
$var wire 1 & ComA [3] $end
$var wire 1 ' ComA [2] $end
$var wire 1 ( ComA [1] $end
$var wire 1 ) ComA [0] $end
$var wire 1 * ComB [4] $end
$var wire 1 + ComB [3] $end
$var wire 1 , ComB [2] $end
$var wire 1 - ComB [1] $end
$var wire 1 . ComB [0] $end
$var wire 1 / F [4] $end
$var wire 1 0 F [3] $end
$var wire 1 1 F [2] $end
$var wire 1 2 F [1] $end
$var wire 1 3 F [0] $end
$var wire 1 4 Sinal $end
$var wire 1 5 SinalIgual $end

$scope module i1 $end
$var wire 1 6 gnd $end
$var wire 1 7 vcc $end
$var wire 1 8 unknown $end
$var tri1 1 9 devclrn $end
$var tri1 1 : devpor $end
$var tri1 1 ; devoe $end
$var wire 1 < Sinal~output_o $end
$var wire 1 = AMaior~output_o $end
$var wire 1 > BMaior~output_o $end
$var wire 1 ? SinalIgual~output_o $end
$var wire 1 @ ComA[4]~output_o $end
$var wire 1 A ComA[3]~output_o $end
$var wire 1 B ComA[2]~output_o $end
$var wire 1 C ComA[1]~output_o $end
$var wire 1 D ComA[0]~output_o $end
$var wire 1 E ComB[4]~output_o $end
$var wire 1 F ComB[3]~output_o $end
$var wire 1 G ComB[2]~output_o $end
$var wire 1 H ComB[1]~output_o $end
$var wire 1 I ComB[0]~output_o $end
$var wire 1 J F[4]~output_o $end
$var wire 1 K F[3]~output_o $end
$var wire 1 L F[2]~output_o $end
$var wire 1 M F[1]~output_o $end
$var wire 1 N F[0]~output_o $end
$var wire 1 O A[4]~input_o $end
$var wire 1 P B[4]~input_o $end
$var wire 1 Q B[3]~input_o $end
$var wire 1 R B[0]~input_o $end
$var wire 1 S B[1]~input_o $end
$var wire 1 T B[2]~input_o $end
$var wire 1 U inst8|inst|inst7|inst1|inst2~combout $end
$var wire 1 V A[3]~input_o $end
$var wire 1 W A[0]~input_o $end
$var wire 1 X A[1]~input_o $end
$var wire 1 Y A[2]~input_o $end
$var wire 1 Z inst7|inst|inst7|inst1|inst2~combout $end
$var wire 1 [ inst7|inst12[3]~0_combout $end
$var wire 1 \ inst7|inst12[1]~1_combout $end
$var wire 1 ] inst8|inst12[1]~0_combout $end
$var wire 1 ^ inst4|inst3~0_combout $end
$var wire 1 _ inst7|inst12[2]~2_combout $end
$var wire 1 ` inst8|inst12[2]~1_combout $end
$var wire 1 a inst4|inst13|inst1~0_combout $end
$var wire 1 b inst8|inst12[3]~2_combout $end
$var wire 1 c inst4|inst3~1_combout $end
$var wire 1 d inst4|inst10|inst1~4_combout $end
$var wire 1 e inst4|inst3~2_combout $end
$var wire 1 f inst4|inst4|inst15~0_combout $end
$var wire 1 g inst4|inst9|inst1~combout $end
$var wire 1 h inst4|inst4|inst15~combout $end
$var wire 1 i inst4|inst3~3_combout $end
$var wire 1 j inst34|inst6~0_combout $end
$var wire 1 k inst34|inst6~1_combout $end
$var wire 1 l inst34|inst6~2_combout $end
$var wire 1 m inst9|inst|inst4~0_combout $end
$var wire 1 n inst34|inst6~3_combout $end
$var wire 1 o inst34|inst6~4_combout $end
$var wire 1 p inst34|inst6~5_combout $end
$var wire 1 q inst65~0_combout $end
$var wire 1 r inst|inst1~combout $end
$var wire 1 s inst19[3]~2_combout $end
$var wire 1 t inst9|inst8|inst6~2_combout $end
$var wire 1 u inst9|inst9|inst6~0_combout $end
$var wire 1 v inst20[4]~0_combout $end
$var wire 1 w inst18[3]~0_combout $end
$var wire 1 x inst55|inst9|inst6~0_combout $end
$var wire 1 y inst20[4]~1_combout $end
$var wire 1 z inst12|inst6|inst8~2_combout $end
$var wire 1 { inst12|inst6|inst8~3_combout $end
$var wire 1 | inst12|inst7|inst8~0_combout $end
$var wire 1 } inst12|inst7|inst8~1_combout $end
$var wire 1 ~ inst12|inst8|inst8~0_combout $end
$var wire 1 !! inst12|inst8|inst8~1_combout $end
$var wire 1 "! inst20[4]~2_combout $end
$var wire 1 #! inst20[3]~3_combout $end
$var wire 1 $! inst20[2]~4_combout $end
$var wire 1 %! inst4|inst1|inst1~4_combout $end
$var wire 1 &! inst20[1]~6_combout $end
$var wire 1 '! inst20[1]~7_combout $end
$var wire 1 (! inst4|inst4|inst9|inst6~0_combout $end
$var wire 1 )! inst20[0]~5_combout $end
$var wire 1 *! inst8|inst9 [4] $end
$var wire 1 +! inst8|inst9 [3] $end
$var wire 1 ,! inst8|inst9 [2] $end
$var wire 1 -! inst8|inst9 [1] $end
$var wire 1 .! inst8|inst9 [0] $end
$var wire 1 /! inst17 [4] $end
$var wire 1 0! inst17 [3] $end
$var wire 1 1! inst17 [2] $end
$var wire 1 2! inst17 [1] $end
$var wire 1 3! inst17 [0] $end
$var wire 1 4! inst7|inst9 [4] $end
$var wire 1 5! inst7|inst9 [3] $end
$var wire 1 6! inst7|inst9 [2] $end
$var wire 1 7! inst7|inst9 [1] $end
$var wire 1 8! inst7|inst9 [0] $end
$var wire 1 9! inst20 [4] $end
$var wire 1 :! inst20 [3] $end
$var wire 1 ;! inst20 [2] $end
$var wire 1 <! inst20 [1] $end
$var wire 1 =! inst20 [0] $end
$upscope $end
$upscope $end
$enddefinitions $end
#0
$dumpvars
b1011 !
b100 "
1#
0$
1)
1(
0'
1&
0%
0.
0-
1,
0+
0*
13
12
11
10
0/
04
15
06
17
x8
19
1:
1;
0<
1=
0>
1?
0@
1A
0B
1C
1D
0E
0F
1G
0H
0I
0J
1K
1L
1M
1N
0O
0P
0Q
0R
0S
1T
1U
1V
1W
1X
0Y
1Z
1[
1\
0]
1^
0_
1`
1a
0b
1c
1d
1e
0f
0g
0h
1i
1j
1k
0l
0m
0n
0o
1p
0q
0r
0s
0t
1u
0v
0w
0x
0y
0z
0{
0|
0}
0~
0!!
0"!
1#!
1$!
1%!
1&!
1'!
1(!
1)!
z.!
z-!
z,!
z+!
0*!
z3!
z2!
11!
10!
z/!
z8!
z7!
z6!
z5!
04!
z=!
1<!
1;!
1:!
z9!
$end
#5000
b1111 !
b1101 !
b1100 !
b10100 "
b10110 "
b10111 "
1S
1P
0X
1Y
1R
0W
0D
1I
1|
1~
1s
1r
0%!
1m
1.
0)
0`
1b
1_
0\
0C
1B
1F
0G
0?
1!!
1v
0'!
01!
00!
0&!
1x
0u
0k
0j
0d
0c
1t
0^
05
0,
1+
1'
0(
0$!
0#!
0v
1l
1w
0p
1"!
1J
1>
0w
1p
1$!
1#!
1y
1$
1/
0;!
0:!
0"!
1q
1<
0J
0K
0L
0>
0$!
0#!
0y
0$
01
00
0/
14
0q
1;!
1:!
1"!
1J
1K
1L
0<
04
11
10
1/
0;!
0:!
0"!
0J
0K
0L
01
00
0/
#10000
b11100 !
b11110 !
b111 "
b110 "
0P
1X
1O
0R
0I
0~
0|
1z
1%!
1d
0(!
0t
0m
1f
0.
1q
0b
1`
1]
0_
1\
0[
0A
1C
0B
1H
1G
0F
1<
0!!
1{
1&!
0e
1u
0d
0x
1n
1k
0%!
14
0+
1,
1-
0'
1(
0&
1:!
0)!
1;!
1L
0N
1K
1}
1v
0l
0&!
10
03
11
0i
0<!
0M
0=
1w
0p
0s
0#
02
1"!
0q
0<
1J
1>
1$!
0v
1$
1/
04
0;!
0:!
0K
0L
01
00
1;!
0"!
0J
1L
11
0/
#15000
b100 "
b11100 !
b101 "
0X
0S
1R
1I
1%!
0z
1(!
1t
1m
0f
1.
1_
0\
0]
0H
0C
1B
1&!
0{
1o
0k
0a
0%!
1'
0(
0-
1)!
1N
1'!
1l
0$!
0&!
13
0'!
1<!
0;!
0L
1M
12
01
0<!
0M
02
#20000
b1101 "
b1001 "
b1011 "
1S
0T
1Q
1z
0}
1~
0`
1]
1b
1F
1H
0G
1x
0u
0n
1e
1a
1%!
0l
1d
0,
1-
1+
0o
1$!
1&!
0e
1i
1=
1'!
1s
1#
1;!
0i
1q
1<
0=
1L
1v
0s
11
0#
14
1<!
1:!
0q
0<
1K
1M
0v
12
10
04
1"!
0:!
0K
1J
1/
00
0"!
0J
0/
#25000
b10100 !
b10000 !
b11011 "
b11111 "
1T
1P
0Y
0V
1}
0~
1|
0z
0r
0Z
0d
1q
0b
0]
0_
1[
1A
0B
0H
0F
1<
1?
1!!
0}
0w
1g
1#!
1y
1l
1j
1c
0%!
1n
0x
1u
0a
15
14
0+
0-
0'
1&
14!
0[
0A
1@
0!!
0&!
0$!
0#!
0y
1p
1e
1o
0c
0j
1%
0&
1"!
1:!
1K
1J
0>
0'!
0p
0e
0$
1/
10
0"!
0;!
0:!
0K
0L
0J
1>
1$
0/
01
00
0<!
0M
02
#30000
b10001 !
b10011 !
b11110 "
b10110 "
b10100 "
b11011 !
b11111 !
b100 "
0S
0Q
0P
1X
1Y
1V
0R
1W
1D
0I
0|
1r
1Z
0g
1d
0t
0m
1^
0.
1)
1`
0q
04!
1[
1A
0@
0<
1G
0?
1w
0d
0o
1c
1k
1a
1j
05
1,
04
0%
1&
0[
0A
1&!
1e
0w
1p
0l
0c
0j
0&
0>
0&!
1w
0p
0e
0$
1i
0)!
0N
1=
1>
1&!
1s
1$
1#
03
1)!
1q
0i
0=
1<
1N
1'!
1v
0s
13
14
0#
1;!
1:!
0q
0<
1K
1L
0v
11
10
04
1<!
1"!
0;!
0:!
0K
0L
1J
1M
12
1/
01
00
0"!
0J
0/
#35000
b1100 "
b10111 !
0V
1Q
1d
1~
1[
1b
1F
1A
1#!
1!!
0d
1&
1+
0#!
1:!
1K
10
0:!
0K
00
#40000
b1000 "
b10110 !
b1001 "
0T
0W
1R
1I
0D
0&!
1%!
1t
1m
0^
0)
1.
0`
1\
1C
0G
0'!
1&!
1o
1$!
0n
0k
0a
0t
1^
0,
1(
1'!
0o
1l
1c
0u
1x
0<!
1;!
1L
0M
0w
1p
1e
1#!
1y
02
11
1<!
1M
0>
0'!
0$!
0#!
0y
0$
12
0)!
1i
1:!
1"!
1J
1K
1=
0N
1s
03
1#
10
1/
0<!
0;!
0:!
0"!
1)!
1q
1<
1N
0J
0K
0L
0M
02
01
00
0/
13
14
#45000
b1101 "
1T
1`
1G
0x
1u
1k
1a
1,
1v
0l
0c
1:!
1;!
1L
1K
1w
0p
0e
10
11
1"!
1J
1>
1'!
1$
1/
0i
0=
0s
0#
1<!
0q
0<
1M
0v
12
04
0;!
0:!
0K
0L
01
00
0"!
0J
0/
#50000
b10010 !
b11101 "
b11010 !
b11011 !
b11100 "
1P
0Y
1V
0R
1W
1D
0I
0~
0r
1d
0&!
0m
0%!
0.
1)
1q
0b
1_
0[
0\
0C
0A
1B
0F
1<
1?
0!!
0w
1#!
1&!
0d
1}
1x
0u
1n
0k
0a
15
14
0+
1'
0&
0(
1"!
1J
0&!
0#!
10!
1l
1c
1/
0"!
1:!
1K
0J
0'!
1#!
1p
1e
0/
10
0:!
0K
0>
0$
00
0<!
1:!
1i
1=
1K
0M
02
10
1#
#55000
b11111 !
b1100 "
b10111 !
b10110 !
b1101 "
0P
1Y
0V
1R
0W
0D
1I
1~
1s
1r
1d
1t
1m
0^
1%!
1.
0)
1b
0_
1[
1\
1C
1A
0B
1F
0?
1!!
00!
1u
1o
0x
0c
1&!
0d
0}
0n
1k
1a
0t
1^
05
1+
0'
1&
1(
1;!
1L
0#!
1v
1w
0p
0e
0o
0l
11
1>
1'!
1$
1"!
0i
0=
1J
0s
1/
0#
1<!
0q
0<
1M
0v
12
04
0;!
0:!
0K
0L
01
00
0"!
0J
0/
#60000
b110 !
b100 !
b101 "
b0 !
b1 !
0Q
0X
0Y
0O
1W
1D
0~
0%!
0r
1d
0(!
1{
0m
1)
0b
0\
0[
0A
0C
0F
1?
0!!
0&!
0w
1#!
1}
0d
0{
1n
1f
0^
15
0+
0(
0&
0)!
1"!
1J
0N
0'!
1&!
0#!
10!
11!
0}
03
1/
0"!
1:!
1K
0J
1'!
1#!
1$!
00!
0/
10
0<!
0:!
0K
0M
0#!
02
00
1<!
1:!
1;!
1L
1K
1M
12
10
11
0:!
0K
00
#65000
b1 "
b10001 "
b1001 !
b11001 !
b11101 !
1Y
1V
1O
0T
1P
1%!
1~
1|
1z
1q
1\
1b
1]
1H
1F
1C
1<
0&!
1{
10!
1d
0%!
14
1(
1+
1-
0'!
01!
1}
1#!
1&!
0$!
00!
1!!
1'!
0<!
1:!
1K
0M
0#!
02
10
0;!
1"!
1<!
1M
1J
0L
01
1/
12
0:!
0K
00
#70000
b10000 "
b11111 !
b11000 "
b1000 "
b10111 !
b10011 !
1X
0Y
0V
1Q
0P
0R
0I
1%!
0d
0|
0z
1r
1(!
0&!
0f
1^
0U
0.
1_
0\
1[
0q
0`
0]
0H
0G
0<
1A
0C
1B
0?
1&!
1e
0{
0'!
1w
1x
0u
0n
0k
0%!
05
1'
0(
1&
04
0,
0-
1)!
0"!
0J
1N
1'!
0}
1#!
1y
1l
13
0/
1i
0<!
0M
1=
0w
1p
1s
1#
02
1<!
1:!
1"!
1q
1<
1J
1K
1M
0>
0'!
0&!
0#!
0y
0$
12
10
1/
14
1;!
1L
11
0<!
0:!
0"!
0J
0K
0M
02
00
0/
#75000
b10010 !
b10 !
b1001 "
b1 "
b1010 !
0Q
1V
0O
1R
0W
0D
1I
0~
1%!
0s
0r
1t
1m
0^
1U
1.
0)
0b
0q
0_
1\
1C
0B
0<
0F
1?
0!!
1&!
10!
1u
0x
1c
1j
1d
0e
0a
0t
1^
15
0+
04
0'
1(
0;!
1"!
1J
0L
1'!
1#!
1e
0u
1x
01
1/
0"!
0i
0=
0J
0/
0#
1<!
1:!
1i
1=
1K
1M
12
10
1#
#80000
b11 "
b111 "
b1110 !
b1111 !
b110 "
b111 !
1Y
0V
1S
1T
1W
0R
0I
1D
0d
1z
0m
1)
0.
1_
0[
1`
1]
1H
1G
0A
1B
1{
1}
1n
00!
0j
0%!
1'
0&
1,
1-
11!
10!
0#!
0&!
1$!
1#!
0'!
0:!
0K
00
1;!
1:!
0<!
0M
1K
1L
11
10
02
#85000
b10111 !
b10011 !
b11011 !
0Y
1V
1O
1%!
1s
1r
1q
0\
0C
1<
0?
1&!
01!
00!
0{
1t
1k
0^
05
14
0(
1<!
1M
0$!
0#!
1u
0l
0x
0c
12
1v
1w
0p
0e
1>
1'!
0&!
1$
1"!
0i
0=
1J
0'!
0s
1/
0#
0q
0<
0v
04
0<!
0;!
0:!
0K
0L
0M
02
01
00
0"!
0J
0/
#90000
b11001 !
b10110 "
b11110 "
b11100 "
b11101 !
0S
1Q
1P
0X
1Y
0z
0r
0%!
0]
1q
0_
1\
1C
0B
1<
0H
1?
1'!
11!
10!
0w
1&!
1%!
0t
0n
1^
0}
1a
15
0-
14
0'
1(
1$!
1#!
00!
1<!
1M
0#!
12
1;!
1:!
1K
1L
11
10
0:!
0K
00
#95000
b11100 !
b11101 "
b1100 !
b1110 !
b10101 "
b1010 !
0Q
1X
0Y
0O
1R
0W
0D
1I
1~
1r
1d
1|
1z
1m
1.
0)
1b
1[
0`
1]
1H
0G
1A
1F
0?
1!!
0'!
01!
1w
1{
0d
1x
0u
1n
0k
0a
0%!
1t
0^
05
1+
1&
0,
1-
0$!
1'!
0&!
1#!
1y
1o
1l
1u
0x
0<!
0M
0'!
0#!
0y
02
0;!
1<!
1:!
1"!
1J
1K
1M
0L
01
12
10
1/
0<!
0:!
0"!
0J
0K
0M
02
00
0/
#100000
b10100 "
b1000 !
b11100 "
0X
1Q
0R
0I
1%!
0Z
0~
0(!
0|
0z
0t
0m
1f
0.
0\
0b
1`
0]
0H
1G
0F
0C
1&!
1d
0!!
1}
0{
0o
1h
1k
1y
1j
1c
1a
0%!
0(
0+
1,
0-
0)!
0N
1'!
1#!
0h
1e
1!!
0}
0w
1p
0l
1$!
0&!
03
1"!
1J
0>
0!!
0'!
0$!
0#!
0y
0$
1/
1<!
1:!
1i
0q
1;!
1L
0<
1=
1K
1M
1s
12
10
1#
04
11
0"!
0<!
0;!
0:!
0K
0L
0M
0J
0/
02
01
00
1;!
1L
11
#105000
b0 !
b1100 "
b1110 "
b10000 !
b10010 !
1S
0P
1X
0V
1O
1z
1~
1%!
1Z
1g
0d
1]
1q
1b
1_
1\
14!
0[
0A
1@
1C
1B
1F
1<
1H
1{
1&!
0g
1l
0%!
0k
1v
0j
0c
1}
0u
0a
1o
1-
14
1+
1'
1(
1%
0&
1<!
04!
1[
1:!
0i
0=
1K
1A
0@
1M
1h
1w
0p
0&!
0e
1!!
0v
0o
0s
12
0%
1&
10
0#
0<!
1"!
0:!
0;!
1i
0q
0<
1=
0L
0K
1J
0M
1>
0w
1p
1s
1$
02
1/
00
01
1#
04
0i
1q
0"!
0J
1<
0=
0>
0s
0$
0#
14
0/
0q
0<
04
#110000
b10011 !
b10111 !
b111 !
b101 !
0X
1Y
0O
1W
1D
1%!
0r
1d
1(!
0f
1^
1)
0\
0[
0A
0C
1?
1&!
11!
0h
1x
0{
1t
1k
0^
0l
15
0(
0&
1)!
1"!
1J
1N
1'!
1$!
01!
1u
0x
0p
13
1/
1>
0$!
1$
1<!
1;!
1L
1M
12
11
0;!
0L
01
#115000
b1010 "
b1101 !
b11010 "
b1100 !
b1000 !
b1010 !
1X
0Y
1V
0T
1P
0W
0D
0%!
0d
0}
0~
1|
1r
0(!
0)
0_
1\
1[
1q
0b
0F
1<
1A
1C
0B
0?
0&!
0!!
0'!
1w
1a
1{
0t
1f
1j
1c
1d
05
0'
1(
1&
14
0+
0)!
0"!
0J
0N
1$!
1#!
1y
1}
0w
1p
1e
03
0/
0<!
0M
0>
1!!
0$!
0#!
0y
0$
02
1;!
1:!
1"!
0q
1i
1=
0<
1J
1K
1L
1s
11
10
1/
04
1#
0"!
0;!
0:!
0K
0L
0J
0/
01
00
1;!
1L
11
#120000
b11110 "
b1110 "
b1110 !
1Y
1T
0P
0}
1~
0|
0s
0r
1_
1b
1F
1B
1?
1}
11!
0u
0k
0a
0j
0d
0c
15
1'
1+
0;!
1"!
1J
0L
10!
1$!
1l
1h
0p
0e
01
1/
1>
1#!
1p
1$
1;!
0i
0=
1L
0>
0$
11
0#
1:!
1K
10
#125000
b1111 "
b111 "
b101 "
b110 !
b111 !
b101 !
b1 "
0X
0V
0S
0T
0Q
1W
1R
1I
1D
1%!
1d
0z
0~
1&!
1)
1.
0\
0[
0`
0]
0b
0F
0H
0G
0A
0C
0&!
0h
0{
0!!
1'!
0n
01!
1x
1a
0%!
0d
0(
0&
0,
0-
0+
0'!
11!
0}
0$!
1&!
1e
0"!
1<!
1M
0J
1$!
00!
1'!
0/
12
0<!
0;!
1i
1=
0L
0M
0#!
02
01
1#
1;!
1<!
1M
1L
11
12
0:!
0K
00
#130000
b10001 "
b11001 "
b100 !
b11101 "
1T
1Q
1P
0W
0D
1}
1|
1z
1s
1r
1(!
0&!
1t
1m
0f
0)
1]
1H
0?
0}
0'!
01!
1%!
05
1-
1)!
1N
0$!
1&!
13
0<!
0M
02
0;!
0L
01
#135000
b1100 !
b1110 !
b1111 !
b11001 "
0T
1X
1V
1W
1D
1}
0%!
1d
0(!
0&!
1{
0m
1)
1`
1\
1[
1A
1C
1G
1!!
1&!
0e
0x
1u
1n
0a
0t
1f
1j
1c
1,
1(
1&
1:!
0)!
0N
1K
0u
1e
10
03
0i
0:!
0K
0=
0s
0#
00
1:!
1i
1=
1K
1s
10
1#
0:!
0K
00
1:!
1K
10
#140000
b1011 !
b11000 "
b1000 "
b0 "
b11 !
b10 !
b100 "
1T
0Q
0P
0Y
0V
0R
0W
0D
0I
0|
0z
0s
0r
0d
0&!
0.
0)
0]
0_
0[
0A
0B
0H
1?
0{
10!
1h
1%!
0n
1k
0f
1^
1u
1a
0!!
0j
0c
15
0-
0'
0&
0:!
1"!
1J
0K
11!
0}
1#!
1&!
0l
0h
0e
00
1/
0i
0"!
0J
0=
1$!
00!
1'!
0p
0#
0/
1:!
1K
1>
0#!
1$
10
1;!
1<!
1M
1L
11
12
0:!
0K
00
#145000
b10010 !
b110 "
b10000 !
b11000 !
b10 "
1S
0T
0X
1V
1O
1z
0%!
0Z
1r
0`
1]
0\
0C
1H
0G
0?
0&!
1d
0'!
01!
1w
1x
0u
1n
0a
1%!
1t
0^
05
0,
1-
0(
1[
1A
0$!
1&!
1y
1c
1u
0x
1j
1&
0<!
0M
1'!
1e
1#!
0w
1p
02
0;!
1"!
1J
0L
0>
0'!
0#!
0y
0$
01
1/
1<!
1i
1:!
1K
1=
1M
1s
12
1#
10
0<!
0:!
0"!
1q
1<
0J
0K
0M
02
00
0/
14
1<!
1;!
1L
1M
12
11
#150000
b11100 !
b11 "
b10011 "
b11011 "
b11101 !
b1101 !
b11001 "
b1111 !
0S
1Q
1P
1X
1Y
0O
1R
1W
1D
1I
1|
0%!
1Z
0&!
1{
1.
1)
1`
0q
1_
1\
1C
1B
0<
1G
1}
1&!
0k
0t
1f
1,
04
1'
1(
0<!
0M
1!!
1l
0u
02
0;!
0L
01
1:!
1K
10
#155000
b1011 !
b1001 "
b1010 !
b1011 "
b1000 !
1S
0P
0X
0Y
0W
0D
0|
1~
0s
0r
1%!
0Z
1(!
0&!
1t
1m
0f
0)
0`
1b
0_
0\
0C
0B
1F
0G
1?
0}
11!
10!
1&!
0d
1u
1o
1k
0j
0c
0{
15
0,
1+
0'
0(
0:!
1)!
1"!
1J
1N
0K
00!
1$!
1#!
1'!
0e
0p
0l
01!
00
13
1/
1>
0#!
0$!
1$
1;!
1:!
1<!
0i
0=
1M
1K
1L
11
10
12
0#
0:!
0;!
0L
0K
00
01
#160000
b1111 "
b1110 "
b1001 !
b1100 "
0S
1T
1W
0R
0I
1D
0z
0m
1Z
1)
0.
1`
0]
0H
1G
0o
11!
1a
0%!
0t
1^
1,
0-
1$!
0&!
0'!
1;!
1L
11
0<!
0M
02
#165000
b1 !
b100 "
b10001 !
b10100 "
b10101 "
b10000 !
0Q
1P
0V
1O
1R
0W
0D
1I
1|
1z
1t
1m
0^
0Z
1.
0)
1q
0`
1]
1H
0G
1<
1o
1g
1d
01!
0a
1%!
14
0,
1-
14!
0[
0A
1@
1l
0$!
1&!
10!
0!!
1%
0&
1'!
1#!
0;!
0"!
0J
0L
01
0/
1<!
1:!
1K
1M
12
10
#170000
b10100 !
b10110 !
b10001 "
b11110 !
b11001 "
b11000 "
b11111 !
0T
1Q
1X
1Y
1V
0R
1W
1D
0I
0U
0~
1Z
0g
0d
0|
0z
0m
0.
1)
0b
04!
1[
0]
0H
1A
0@
0F
1~
0l
0o
1j
1c
0%!
0t
0k
1^
0+
0%
1&
0-
1b
0[
0A
1F
1p
1e
0&!
0u
1x
0c
0j
1d
1+
0&
0>
0'!
0e
0p
0$
1i
1=
1>
1$
1#
0<!
0i
0=
0M
02
0#
#175000
b1111 !
b1000 "
b1011 !
b1001 !
b1001 "
0P
0X
0Y
0O
1R
1I
0d
0(!
1&!
1f
0^
1U
1.
0q
1[
1A
0<
1h
1'!
0x
00!
1!!
1l
04
1&
0)!
0N
0#!
1p
03
1<!
1"!
1J
1M
0>
0$
12
1/
0:!
0K
00
#180000
b1 !
b0 !
b10 !
b1000 "
1X
0V
0R
0W
0D
0I
1%!
1d
0&!
0U
0.
0)
1\
0[
0A
1C
1&!
0h
0'!
0n
0f
1^
10!
0!!
0l
1(
0&
1'!
1x
1#!
0p
0<!
0"!
0J
0M
1>
1$
02
0/
1<!
1:!
1K
1M
12
10
#185000
b1100 "
b10010 !
b11100 "
b11010 !
b11011 !
1V
1O
1T
1P
1W
1D
0%!
1U
1(!
1)
1q
1_
0\
1`
1G
0C
1B
1<
0&!
0~
1}
1n
14
1'
0(
1,
0b
1)!
1N
0F
0'!
1l
0d
1c
0+
13
1p
1e
0<!
0M
0>
0$
02
1i
1=
1#
#190000
b11111 !
b11101 !
b11101 "
b1101 "
0P
0X
1Y
1R
1I
1~
1s
1r
1%!
0(!
1&!
1f
0^
1.
1b
0_
1\
1C
0B
1F
0?
1!!
1v
00!
0&!
1h
0x
0c
0l
1d
0}
1u
0n
1k
1a
1{
0f
1^
05
1+
0'
1(
1<!
0)!
0N
1M
0#!
0e
1w
0p
0h
0!!
1}
12
03
1"!
0i
1;!
1L
0=
1J
1>
1&!
1#!
1!!
0s
1$
1/
0#
11
0:!
0q
0<
0K
1'!
0v
00
04
1:!
0<!
0;!
0L
0M
1K
10
02
01
1<!
0"!
0J
1M
12
0/
#195000
b1101 !
b101 !
b100 !
b0 !
b11101 "
1P
0Y
0V
0O
0W
0D
0~
1|
1z
0Z
0%!
1(!
0{
1m
0)
1q
0b
0`
1]
0\
0C
1H
0G
0F
1<
0!!
0}
0d
0&!
1x
0u
1n
0a
1%!
1t
0^
14
0+
0,
1-
0(
1)!
1N
0'!
1y
1o
1&!
1u
0x
13
1'!
0#!
0y
0<!
1"!
1J
0M
02
1/
1<!
0:!
0"!
0J
0K
1M
12
00
0/
#200000
b11111 "
b10111 "
b10011 "
b10 !
b10010 !
b11 "
1X
1O
1S
0T
0Q
0P
0%!
1Z
1g
0|
1_
1\
0q
14!
1@
0<
1C
1B
0&!
0g
1d
1l
1x
0u
0n
0k
1e
1a
1{
1'
1(
04
1%
04!
1[
1A
0@
0'!
0e
1y
0o
1$!
1c
1}
1j
0%
1&
1i
1=
0w
1p
1e
1!!
1s
1#
0<!
0i
1"!
1;!
1q
1<
1L
1J
0=
0M
0>
0$!
0y
0s
0$
02
0#
1/
11
14
0)!
0q
1i
1<!
1:!
1K
1M
1=
0<
0N
1s
03
04
1#
12
10
0;!
0"!
0<!
0:!
1)!
1q
1<
1N
0K
0M
0J
0L
01
0/
02
00
13
14
1<!
1:!
1K
1M
12
10
#205000
b11010 !
b11110 !
b1011 "
b11100 !
b1100 !
b11011 "
1Q
1P
0X
1Y
1V
0O
1|
0z
1%!
0q
1`
0]
0\
0C
0H
1G
0<
0{
1&!
0x
1u
1n
0a
0%!
04
1,
0-
0(
0<!
0M
1o
0&!
02
0:!
1;!
1<!
1M
1L
0K
00
11
12
#210000
b11010 "
b1101 !
b10010 "
b1111 !
b11111 !
b10 "
1X
1O
0Q
0P
1W
0R
0I
1D
0d
0|
1z
0t
0m
1^
1)
0.
0_
1q
0[
0`
1]
1H
0G
0A
1<
0B
0}
0u
0o
1x
1k
0!!
1v
0j
1%!
1t
0^
0'
14
0&
0,
1-
1:!
0;!
0<!
0M
0L
1K
0v
0l
1&!
1u
0x
0c
10
01
02
0:!
1"!
1<!
1;!
1L
1M
1J
0K
1w
0p
1v
0e
00
1/
12
11
0"!
1:!
1K
0J
1>
1'!
0&!
1$
0/
10
1"!
0i
0=
1J
0'!
0s
1/
0#
0q
0<
0v
04
0<!
0;!
0:!
0K
0L
0M
02
01
00
0"!
0J
0/
#215000
b110 "
b10111 !
b10011 !
b1110 "
b10001 !
b1 !
0X
0Y
0V
0O
1T
1Q
0r
1~
1`
1b
1F
1G
1?
1'!
11!
10!
0w
1a
1d
15
1,
1+
1$!
1#!
0'!
1&!
1<!
1M
1'!
12
1;!
1:!
0<!
0M
1K
1L
11
10
02
1<!
1M
12
#220000
b0 !
b11110 "
b10 !
b10010 !
1P
1X
1O
0W
0D
0~
1|
0%!
0d
0(!
0)
1q
0b
0`
1_
1\
1[
1A
1C
1B
0G
0F
1<
0&!
1e
1j
1d
1c
1x
0u
0n
0k
1{
0t
1f
14
0+
0,
1'
1(
1&
0)!
0N
0'!
1p
1l
01!
1}
03
1i
1=
0>
0$!
00!
1!!
0$
1#
0<!
0M
0#!
02
0;!
1"!
1J
0L
01
1/
0:!
0K
00
#225000
b11100 "
b11101 "
b11010 !
b10101 "
b11011 !
b101 "
1V
0S
0Q
0P
1W
1R
1I
1D
0d
0|
0z
1s
1r
1&!
1%!
1)
1.
0[
1`
0]
0\
0C
0H
1G
0A
0?
0{
0&!
0!!
0j
0c
0x
1n
0a
0%!
05
0&
1,
0-
0(
1<!
1;!
0"!
0J
1L
1M
0e
1h
1&!
12
11
0/
0;!
0<!
0M
0L
01
02
0i
0=
0s
0#
0q
0<
04
#230000
b11111 !
b11101 !
b1101 "
b11101 "
1Q
1P
0X
1Y
1|
1z
0r
1%!
1q
0`
1]
0_
1\
1C
0B
1H
0G
1<
1?
0}
1{
1'!
10!
0&!
0%!
15
14
0,
1-
0'
1(
00!
11!
1#!
0'!
1&!
1<!
1M
0#!
1$!
1'!
12
1:!
0<!
0M
1K
10
02
0:!
1;!
1<!
1M
1L
0K
00
11
12
#235000
b11001 "
b1101 !
b11011 "
b1100 !
b1110 !
1X
0O
1S
0T
0W
0D
1r
1d
0z
1}
1(!
0&!
1t
1m
0f
0)
1_
0q
1[
1`
0]
0H
1G
1A
0<
1B
0?
0'!
01!
0h
0{
1!!
1u
1o
0n
1j
1c
1%!
0t
1^
05
1'
04
1&
1,
0-
0$!
0o
1e
1&!
0u
1x
0<!
0M
02
0;!
1i
1=
0L
1s
01
1#
1)!
1N
13
1:!
1K
10
#240000
b11010 "
b110 !
b10 !
b1010 "
b10010 !
b10011 !
b10001 !
0X
0Y
0V
1O
0P
1W
0R
0I
1D
1~
0|
1z
0m
1)
0.
1q
1b
0`
1]
1H
0G
1F
1<
0}
1{
0j
0d
1a
0%!
14
1+
0,
1-
1<!
1M
1}
0c
0&!
12
0:!
1;!
0<!
0M
1L
0K
00
11
02
